ASSIGNMENT:,,MIKE,GLADYS,GLADYS,GLADYS,KRISTINE,,,,,IRA,,,,,LALA,,,,,,,,,,,,,PAULINE,,,,,,,EUGENE,,,,,SCHATZI,,,,,SHIE,,,,,KAYE,,,,KAYE,,,,SAM,SAM,,,,NERBIN,NERBIN,,,AL,BAKS,JEAN,DANA,,,,,,JASPER,,,MARINA,MARINA,,,,,,,,,MARINA,,,,,MARINA,,,,,TIF,TIF,,,,,,,,,,TIF,TIF,LIZ,LIZ,,,,LIZ,,,,,BARRIOS,BARRIOS,,,
NO.,Interviewer,"In your community, houses are typically","In your house, how many bedrooms are there?","For families sharing bedrooms for everyone, how many individuals share the room daily? ","For option families sharing one bedroom and a common area, how many families share the house? ","In your community, houses are generally made of the following (tick as many as possible)",,,,,"In your community, houses generally have which of the following facilities",,,,,Which of the following service centers / facilities are considered accessible in the community? (tick as many as appropriate),,,,,,,,,,,,,"Your community is near which of the following? If with other answers, specify:",,,,,,,"What is the source of water in the household? [For daily use (e.g. laundry, bath, etc.)]",,,,,What is the source of water in the household? [For cooking use],,,,,What is the source of water in the household? [For drinking],,,,,How do you ensure water is safe for drinking?,,,,"If water is boiled, what is the specific duration of the boiling process?",,,,Do you store water for drinking in your home?,"If yes, drinking water is typically stored in:",,,,Do you store food and perishable items in your home,"If yes, food and perishable items are typically stored in:",,,Is hand-washing generally done by everyone prior to eating meals?,Is hand-washing generally done by the person who prepares the meals?,Is hand-washing generally done by everyone after using the toilet?,What is the usual practice of the community members for garbage disposal? (Tick as many as possible),,,,,,Do family / community members practice the following garbage disposal measures:,,,Is there regular garbage disposal in the community?,"If yes, how frequent is garbage collection done in the community?",,,,,,,,,"If several times a week, how many times a week?",,,,,Garbage collection is facilitated by:,,,,,Do you have biological pests in the community,"If yes, which are considered pests and abundant in the community?",,,,,,,,,,Are there any specific measures done in the community to control these pests?,"If yes, what specific measures are done by the community? ",Do you believe water pollution is a problem in the community?,"If yes, what are the potential sources of water pollution in the community?",,,,Are there areas or objects in the community where excess water / rainwater can accumulate?,,,,,Do you believe air pollution is a problem in this community?,"If yes, what are the potential sources of air pollution in the community?",,,
,,"""closely built to each other..."" = 0 (ANSWER)
“spacious...” = 1
“with adequate (extra) land...” = 2","“separate bedrooms…“ = 0
“no actual bedroom…” = 1
“shared bedrooms…” = 2
“one bedroom…” = 3","“1” = 1
“2” = 2
“3” = 3
“4” = 4
“5” = 5
“6” = 6
“7” = 7
“8” = 8
“9” = 9
if there is no response, leave BLANK","“1” = 1
“2” = 2
“3” = 3
“4” = 4
“5” = 5
“7” = 7
“8” = 8
“9” = 9
if there is no response, leave BLANK","Legend:
W —> Wood
C —> Cement/Concrete
M —> Metal/Iron
S —> Scrap Materials
O —> Others

Put “1” if YES.",,,,,"Legend
PT —> “private toilet…“
CT —> “communal toilet…”
W1 —> “w/ electricity AND…”
W2 —> “w/ electricity BUT…”
WS —> “water system…”

Put “1” if YES.",,,,,"Legend:
PH —> private hospital
GH —> government hospital
BHC —> barangay health center
BB —> botika ng barangay
WM —> wet markey
DM  —> dry market
C  —> church
BC  —> basketball court
PS  —> police station
FS  —> fire station
FE  —> food establishments
M  —> mall
O  —> others

Put “1” if YES.",,,,,,,,,,,,,"Legend:
R —> river…
M —> main road…
F —> factories…
D —> dump site…
C —> construction site…
H  —> hospital…
O  —> others

Put “1” if YES.",,,,,,,"Legend:
T —> tap…
W —> water from well
R —> rationed…
B —> bottled…
O  —> others

Put “1” if YES.",,,,,,,,,,,,,,,"Legend:
U —> use water filters
B —> boil water
N —> no specific measure…
O  —> others

Put “1” if YES.",,,,"*THESE NUMBERS INDICATE THE NO. OF MINUTES.

1-3 = put “1”
4-6 = put “4”
7-9 = put “7”
10+ (ten, or more) = put “10”",,,,"“No” = 0
“Yes“ = 1","Legend:
U —> uncovered containers
D —> drinking water is not stored in the house
C —> containers with covers/lids
O  —> others

Put “1” if YES.",,,,"“No” = 0
“Yes“ = 1","Legend:
R —> refrigerator…
F —> food cabinet…
N —> no specific…

Put “1” if YES.",,,"“No” = 0
“Yes“ = 1","“No” = 0
“Yes“ = 1","“No” = 0
“Yes“ = 1","Legend:
THROW —> throw…
OPEN —> open…
BURY —> bury…
BURN  —> burn
IND. —> indiscrimintate…
OTHERS —> others

Put “1” if YES.",,,,,,"Legend:
W —> waste segregation
R —> recycling
C —> composting

Put “1” if YES.",,,"“No” = 0
“Yes“ = 1","Legend:
D —> daily
S —> several times a week
W —> weekly
M  —> monthly
Q  —> quarterly
1X  —> once every six months
Y  —> yearly
O  —> others
U —> unknown to respondent

Put “1” if YES.
",,,,,,,,,"Put ""1"" in the appropriate box.",,,,,"Legend:
L  —> local gov’t
N  —> NGO
S  —> selected community members
U  —> unknown to respondent
O  —> others

Put “1” if YES.",,,,,"“No” = 0
“Yes“ = 1","Legend:
F  —> flies
MO  —> mosquitoes
CO —> cockroaches
MI —> mice/rats
SC —> stray cats
SD —> stray dogs
B —> birds (pigeons)
P —> pigs
C —> chickens
O  —> others

Put “1” if YES.",,,,,,,,,,"“No” = 0
“Yes“ = 1",*No options were given so just make a summary? Or tabulate na lang din if medyo pareho yung responses.,"“No” = 0
“Yes“ = 1","Legend:
IMP  —> improper garbage disposal
IND  —> industrial factories
F —> faulty drainage system
O  —> others

Put “1” if YES.",,,,"Legend:
C  —> canals/drains
F  —> flower pots
R —> rubber tires
B —> basins/drums
O  —> others

Put “1” if YES.",,,,,"“No” = 0
“Yes“ = 1","Legend:
V  —> vehicular smoke
C  —> cigarette smoke
I —> industrial plants/factories
O  —> others

Put “1” if YES.",,,
,,,,,,W,C,M,S,O,PT,CT,W1,W2,WS,PH,GH,BHC,BB,WM,DM,C,BC,PS,FS,FE,M,O,R,M,F,D,C,H,O,T,W,R,B,O,T,W,R,B,O,T,W,R,B,O,U,B,N,O,1-3,4-6,7-9,10+,,U,D,C,O,,R,F,N,,,,THROW,OPEN,BURY,BURN,IND.,OTHERS,W,R,C,,D,S,W,M,Q,1X,Y,O,U,2X,3X,4X,5X,6X,L,N,S,U,O,,F,MO,CO,MI,SC,SD,B,P,C,O,,,,IMP,IND,F,O,C,F,R,B,O,,V,C,I,O
1,"ABAD, Miguel",0,1,,,1,1,1,1,,1,,1,,,1,1,1,1,1,1,1,1,1,1,1,1,,1,1,1,,,1,,,,,1,1,,,,1,1,,,,1,1,,,,1,,,,,1,,,1,,1,,,1,1,1,1,1,,,,,,1,1,,1,,1,,,,,,,,1,,,,,1,,,,,1,1,1,1,1,1,1,1,,1,,0,,0,,,,,1,,,1,,1,1,,,
2,"ABELEDA, Mark",1,3,,4,,1,,,,1,,1,,,,,1,1,,1,1,1,1,1,1,1,,,1,,,1,1,,,,1,,,,,,1,,,,,1,,1,,,,,,,,1,,,1,,0,,,,1,1,1,,1,1,,1,,,,,1,,,1,,,,,,,,,,,,1,,,,,1,,1,1,1,1,1,,,1,,0,,1,1,,,,1,,,1,,1,,1,,
3," ABU RAYYAN, Tamam",0,1,,,1,1,,,,1,,,,,,1,1,,1,1,1,1,1,1,1,1,,,1,1,,,1,,,,,,1,,,,,1,,,,,1,,,1,,,,,,1,,,1,,0,,,,1,1,1,1,,,,,,1,1,,1,,1,,,,,,,,1,,,,,1,,,,,1,1,1,1,1,1,,1,,1,,0,,1,,,,1,,,,,,0,,,,
4,"ABULENCIA, Samantha",2,0,,,,1,,,,1,,1,,1,1,1,1,1,1,1,,1,1,1,1,1,1,1,1,1,,,1,,,1,,,,,,,,1,,,,,1,,1,,,,4,,,1,,,1,,1,1,,,1,1,1,1,,,,,,,,,1,,1,,,,,,,,1,,,,,1,,,,,1,1,1,1,1,1,1,1,,1,,0,,1,1,1,,,,,1,1,,0,,,,
5,"ACIERTO, Julie Anne",0,1,,,1,1,,1,,1,,,,,1,1,1,,1,1,,1,,,1,1,,,1,,,,1,,,1,,,,,,,1,1,,,,1,1,,1,,,,,7,,1,,,1,,1,,1,,1,1,1,,1,,,,,,,,0,,,,,,,,,,,,,,,,,,,,1,1,1,1,1,1,1,1,,1,,0,,1,1,,,,1,,,1,,1,,,,1
6,"ACUNA, Steff",0,1,,,1,1,,,,1,,,1,1,,1,,,1,1,1,1,,,1,1,,,1,,,,,,,1,,,,,,,,1,,,,,1,,1,,,,4,,,1,,,1,,1,1,,,1,1,1,1,,,1,,,1,,,1,,1,,,,,,,,1,,,,,1,,,,,1,1,1,1,1,1,,,,1,,0,,1,1,,,,1,,,,,1,1,1,,
7,"AGUILAR, Angel",0,1,,,1,1,,,,1,,,,,,,1,,,,,,,,,1,,1,,,,,,,,,,,1,,,,,1,,,,,1,,,1,,,,,,1,,,1,,1,,,1,1,1,1,,,,1,,,1,,,0,,,,,,,,,,,,,,,,,,,,1,1,1,1,1,,,,,1,,0,,,,,,,1,,,,1,1,,1,,1
8,"AGUITING, Chase",0,2,,,1,1,1,1,,1,,,1,,,,1,,1,,,1,,,,,,1,1,,,,,,,,,,1,,,,,1,,,,1,,,,,1,,,,,1,,,1,,1,1,,,1,1,1,1,,,,,,1,,,0,,,,,,,,,,,,,,,,,,1,,1,1,1,1,1,1,1,,,,,0,,0,,,,,,,,,,1,1,,,1
9,"AGUSTIN, Samantha",0,3,,,,1,,,,1,,,1,1,1,1,1,,1,1,1,1,,,,1,,1,,,,,1,,1,,,,,1,,,,,,,,1,,,,,1,,,,,1,,,1,,1,,1,,1,1,1,1,,,,,,,,,1,,1,,,,,,,,,,1,,,,1,,,,1,1,1,1,1,1,1,1,,1,,0,,0,,,,,,,,,,1,1,1,,
10,"AJERO, Mary Grace",0,3,,3,1,,,,,,1,,1,,1,1,1,1,1,1,1,1,1,1,1,1,,,,,,1,1,,,,,1,,,,,1,,,,,1,,,,,1,,,,,1,,,1,,1,,1,,1,1,1,1,,,,,,,,,1,,1,,,,,,,,1,,,,,,1,,,,1,,,1,,,1,,,,,0,,0,,,,,,,,,,0,,,,
11,"ALAMEDA, Princess",0,2,4,,,1,,,,1,,,,,,,1,,,,,1,,,1,,,1,,,,,,,1,,,,,1,,,,,1,,,,,,,1,,,,,,1,,,1,,0,,,,1,1,1,1,,,,,,,,,1,,1,,,,,,,,1,,,,,1,,,,,1,1,1,1,1,,,,,,,1,"poison, spray",1,1,,,,,,,,,1,,1,1,
12,"ALCANESES, Bea",0,3,,,,1,,,,,1,,1,1,,,1,,,,,1,,,1,,,,,,,,,,,,1,,,,,1,,,,,,,1,,,,1,,,,,1,,,1,,1,,1,,1,1,1,1,,,,,,,1,,1,,1,,,,,,,,1,,,,,1,,,,,1,1,1,1,1,1,1,1,,1,,1,spray,1,,1,,,,,,,,1,1,1,1,
13,"ALCARAZ, Eileen",0,0,,,1,1,,,,,1,,1,1,,,,,,,,1,,,,1,,,,,,,,,1,,,,,,,,1,,,,,1,,1,,,,,,,,1,,,1,,1,1,,,1,1,1,,,,,,1,,,,1,,,1,,,,,,,1,,,,,1,,,,,1,,,1,,1,1,,,,,0,,1,1,1,,,,,,,,1,1,1,,
14,"ALDEGUER, Camille",0,2,,,,1,,,,1,,,,,,,1,,1,,1,1,1,,,,,1,,,,,,,1,,,,,1,,,,,,,,1,,1,,,,,,,,1,,,1,,1,1,,,1,1,1,1,,,,,,,,,1,,,1,,,,,,,,,,,,1,,,,,1,,,,,1,1,,,,,1,anti-rabies injection,0,1,,,,1,,,,,0,,,,
15,"ALFECHE, Alyssa",0,0,,,1,1,1,1,,1,,,1,1,,1,1,1,1,1,1,1,1,1,1,1,,,1,,,,1,,1,,,,,1,,,,,,,,,1,,,,1,,,,,1,,,1,,1,,1,,1,1,1,1,,,,,,,,,1,,1,,,,,,,,,1,,,,1,,,,,1,1,1,1,1,1,1,1,,1,,1,Pest control for cockroaches and mosquitoes,1,1,,,,1,,1,1,,1,1,1,,
16,"ALINDOGAN, Marianette",0,0,,,1,1,1,1,,1,,1,,1,,1,1,1,1,1,1,1,1,1,1,1,,,1,,,,1,,,,1,,,,,1,,,,,,,1,,,,1,,,,,1,,,1,,1,1,,,1,1,1,1,,,,,,,,,1,,1,,,,,,,,,1,,,,1,,,,,1,1,1,1,1,1,1,,,,,0,,0,,,,,,,,,,0,,,,
17,"ALINGOD, Aen",0,2,2,,1,,,,,1,,1,,1,,1,1,,,,1,1,,,,,,1,,,,,,,1,,,,,1,,,,,,,,1,,,,,1,,,,,1,,,1,,1,1,,,1,1,1,1,,,,,1,,,,1,,1,,,,,,,,1,,,,,1,,,,,1,,1,1,,1,,,,,,1,Spraying,0,,,,,,,,,,1,1,1,,
18,"ALMADIN, Jose",0,0,3,,1,1,1,1,,,1,1,,,,1,1,1,1,,1,1,,,,1,,,,,,1,,,,1,,,,,,,1,,,,,1,,,1,,,1,,,,1,,,1,,1,1,,,1,1,1,,,,,1,,,,,1,,1,,,,,,,,1,,,,,1,,,,,1,1,1,1,1,1,1,1,,1,,1,sprays,1,,1,,,,,,,,1,1,1,,
19,"AMANTE, Charlotte",0,2,3,,1,1,,,,1,,1,,,,,,,1,1,,,,,,,,1,,1,,1,,,,,1,,,,,1,,,,,,1,,,,,1,,,,,0,,,,,0,,,,1,1,1,1,,,,,,1,,,1,,,1,,,,,,,,,,,,1,,,,,1,1,1,1,1,1,1,,,,,1,use of pest control sprays,0,,,,,,,,,1,1,1,1,,
20,"AMANTE, Gabriel",0,1,7,,1,1,,,,1,,,1,,,1,1,1,1,1,1,1,,,,1,,,1,,,1,,,,1,,,,,1,,,,,1,,,,,,,1,,,,,1,,,1,,1,,1,,1,1,1,,,,,1,,,,,1,,1,,,,,,,,1,,,,,1,,,,,1,1,1,1,1,1,1,1,,1,,0,,1,,,1,,1,,,,,0,,,,
21,"AMBAY, Angelo",0,3,,,1,1,,1,,,1,1,,1,1,1,1,1,1,1,1,1,1,1,1,1,,1,1,1,,1,,,,,1,,,,,1,,,,,,,1,1,,,,,,,,1,,,,1,1,,1,,1,1,1,,,,,1,1,,,,1,,,1,,,,,,,,,,,,1,,,,,1,,1,1,1,1,1,1,,1,,1,Defogging and pest control (via cat domestication),0,,,,,,,1,,,1,,1,,
22,"AMPIL, Michael",0,4,,,1,1,,,,,1,1,,1,1,1,1,1,1,1,1,1,1,1,1,1,,1,1,1,,1,,,,,1,,1,,,1,,1,,,,,1,1,,,,,,,,1,,,,1,1,,1,,1,1,1,,,,,1,1,,1,,1,,,1,,,,,,,,,,,,1,,,,,1,,1,1,1,1,1,1,,1,,1,Defogging and pest control for rats and domestic cats,0,,,,,,,1,,,1,,1,,1
23,"ANG-OG, Gladys",0,0,,,1,1,,,,1,,,1,1,1,1,1,,1,1,1,1,1,1,1,1,,,,,,,,,,,,,,1,,,,,,,,,,,,,1,,,,,1,,,1,,1,,1,,1,1,1,1,,,,,,,,,,,,,,,,,,,,,,,,,,,,,,,,,,,,,,,,,,,,,,,,,,,,,,,,
24,"APIAG, Kristine",0,0,,,1,1,,,,1,,,1,1,1,1,1,,1,1,1,1,,,1,1,,1,1,1,,,1,,1,,,,,1,,,,,,,,,1,,,1,,,,,,1,,,1,,1,,1,,1,1,1,1,,,,,,,1,,1,,,1,,,,,,,,,,,,1,,,,,1,1,1,1,1,1,1,,,1,,1,"Insecticide, fogging",0,,,,,,,,,,1,,,,1
25,"AQUINO, Ira",0,0,,,1,1,1,1,,1,,1,,,1,,1,,1,1,,1,,,1,1,,1,,1,,,1,,1,,,,,1,,,,,1,,,,,,,1,,,,,,1,,,1,,1,,1,,1,1,1,,,,,,1,,,,1,,1,,,,,,,,1,,,,,1,,,,,1,1,1,1,,1,1,1,,1,,1,fumigation,1,1,,,,,,,,,1,1,1,1,
26,"AQUINO, Lorielle",0,3,,,1,1,1,,,1,,1,,,,,1,,1,1,,1,,,,1,,1,1,,,,1,,,,1,,,,,1,,,,,,,1,,,,1,,,,,0,,,,,1,1,,,1,1,1,1,,,1,,,,,,1,,,1,,,,,,,,,,,,1,,,,,1,1,1,1,,1,1,1,1,1,,0,,1,1,,,,1,1,1,1,,1,1,1,,
27,"AQUINO, Maria",0,1,,,1,1,1,1,,1,,1,1,,,,1,,1,1,,1,,,1,1,,1,1,,,,1,,,,,,1,,,,1,,,,,1,,,,,1,,,,,1,,,,1,1,,1,,1,1,1,1,,,,,,1,1,,1,,,1,,,,,,,,,,,,,,,1,,1,1,1,1,,1,1,,,1,,1,Fumigation,1,1,1,1,,1,,,,,1,1,1,1,
28,"ARES, Eugenio",0,1,,,1,,,,,,1,,,,,1,1,,1,1,,1,,,,1,,,1,,,,,,,,1,,,,,1,,,,,,,1,,,1,,,,,,1,,,1,,1,,1,,1,1,1,,,,,,1,1,1,,0,,1,,,,,,,,1,,,,,1,,,,,1,1,1,1,1,1,1,1,1,1,,1,general cleaning ,1,1,,,,1,,,,,0,,,,
29,"ARJONA, Isobelle",0,1,,,1,,1,1,,1,,1,1,,1,1,1,,1,1,1,1,,,1,1,,,1,,,1,1,,1,,1,,,1,,1,,,1,,1,,,,,1,,,,,,1,,,1,,1,,1,,1,1,1,1,,,,1,,1,,,1,,1,,,,,,,,1,,,,,1,,,,,1,1,1,1,1,1,1,1,,1,,0,,0,,,,,1,,,1,,0,,,,
30,"ARROJO, Shiela",0,2,8,,1,1,1,1,,1,,,,,1,1,1,,1,1,1,1,,,1,,,1,1,1,1,1,1,,1,,,,,,,,1,,,,,1,,,,1,,,,,,1,,,1,,1,,1,,1,1,1,1,,,,,,,,,1,,1,,,,,,,,,1,,,,1,,,,,1,1,1,1,1,1,1,,,1,,0,,1,1,,,,1,,,,,1,1,1,1,
31,"ARROYO, Patricia",0,1,,,1,1,,1,,1,,,1,1,,,1,1,,,1,1,,,,1,,,1,,,,,,1,,,,,1,,,,,,,,1,,,1,,,,,,10,1,,,1,,0,,,,1,1,1,1,,,,,,,,,1,,1,,,,,,,,1,,,,,1,,,,,1,1,1,1,1,1,1,,,1,,1,Baygon,1,1,,,,1,,,,,1,1,1,1,
32,"ASUNCION, Marian",0,,,,1,1,,1,,1,,,1,1,,,1,1,1,1,1,1,,,,,,,1,,,,1,,1,,,,,1,,,,,,,,1,,,,,1,,,,,1,,,1,,1,,1,,1,1,1,1,,,,,,,,,1,,1,,,,,,,,1,,,,,1,,,,,1,1,,1,1,1,1,,,,,1,Mice/Rats - rat poison,1,1,,,,1,,,,,1,1,,,
33,"AYUSTE, Nerbin",0,2,5,,1,1,,,,1,,1,1,1,1,1,1,1,1,1,1,1,1,1,1,1,,1,1,,,,1,,1,1,,,,1,,1,,,1,,1,1,,,,1,,,,,,1,,,1,,0,,,,1,1,1,1,,,,,,,,,1,,1,,,,,,,,1,,,,,1,,,,,1,1,1,1,1,1,1,,,1,,0,,1,1,1,1,,1,1,,,,1,1,1,1,
34,"AZIS, Mohammad",0,1,,,1,1,,,,1,,,1,1,1,1,1,1,1,,1,1,1,1,1,1,,1,1,,,1,1,,1,,1,,,1,,1,,,1,,1,1,,,,1,,,,,,0,,,,,1,,1,,1,1,1,1,,,,,,1,,,1,,1,,,,,,,,1,,,,,1,,,,,1,1,1,1,1,,1,,,,,0,,0,,,,,1,,1,1,,1,1,1,,
35,"BAGUILAT, Jean",0,3,,,1,1,,,,1,,,1,1,1,1,1,1,1,1,1,1,1,1,1,1,,1,1,,,,1,,,,1,,,,,1,,,,,,,1,,,1,,,,,,1,,,1,,0,,,,1,1,1,1,,,,,,,,,1,,1,,,,,,,,1,,,,,1,,,,,1,1,1,1,1,1,1,,,,,1,use of insecticides,1,,,1,,1,,,,,1,1,1,,
36,"BAKING, Stephen",0,1,,,,1,,,,1,,,,,1,1,1,1,1,1,1,1,1,1,1,1,,1,1,,1,1,1,,,,1,,,,,1,,,,,1,,,,,,1,,,,,1,,,1,,0,,,,1,1,1,1,,,1,,,1,,,1,,1,,,,,,,,1,,,,,1,,,,,1,1,1,1,1,1,1,1,,,,0,,1,1,,1,,1,,,,,1,,1,,
37,"BALDONO, Danaleau",0,1,,,1,1,,,,1,,,,,,,1,,1,,1,1,1,1,,1,,1,1,,,1,,,1,,,,,,,,1,,,,,1,,,,1,,,,,,1,,,1,,0,,,,1,1,1,1,,,,,,,,,1,,1,,,,,,,,,1,,,,,,1,,,0,,,,,,,,,,,,,0,,,,,1,,,,,0,,,,
38,"BANAGA, Jasper",0,1,,,1,1,1,1,,,,,,1,,1,,,1,,1,,,,1,,,1,,,,,,,1,,,,,1,,,,,,,,1,,,,,1,,,,,1,,,1,,0,,,1,1,1,1,1,,,,,,1,,,1,,1,,,,,,,,,1,,,,1,,,,,1,1,1,1,1,1,1,,,1,,1,Dog vaccinations,1,1,,,,1,,1,,,1,1,1,,
39,"BANZON, Marina",0,0,,,1,,1,1,,,,,,1,,1,1,,1,1,1,1,1,,1,1,,1,1,1,,1,1,,,,,,1,,,,,1,,,,,1,1,,,,,,,,1,,,1,,1,,1,,1,1,1,1,,,,,,1,1,,1,,,1,,,,,,,1,,,,,1,,,,,1,1,1,1,1,1,1,,,,,1,Self-initiated cleaning of household,1,1,,1,,1,1,1,1,,0,,,,
40,"BARAERO, Tiffany",1,0,,,,1,,,,1,,,,,,1,1,,1,1,1,1,1,1,1,1,,,1,,,,1,,,,1,,,,,,,1,,,,,1,,,,1,,,,,1,,,1,,1,1,,,1,1,1,,,,,,1,,,,1,,1,,,,,,,,1,,,,,1,,,,,1,1,1,1,1,,,,,,,1,cleaning,1,1,,,1,,,,,,1,1,,,
41,"BARATANG, Lizette",0,0,,,1,1,,,,1,,1,,,,,1,,,,,1,,,1,1,,1,,,,,1,,,1,,,,,1,,,,,,,,1,1,,,,,,,,1,,,1,,1,,1,,1,1,1,1,,,,,1,1,1,,1,,1,,,,,,,,,1,,,,1,,,,,1,1,1,1,1,1,,1,,,1,1,requested to local government,1,,1,,,,,,,,0,,,,
42,"BARRIOS, Clarenz",0,3,,,,,1,,,1,,,,,,1,1,1,1,1,1,1,1,1,1,1,,1,1,,,,,,,,1,,,,,1,,,,,,1,,,,,1,,,,,1,,,1,,1,,1,,1,1,1,1,,,,,,1,,,1,,1,,,,,,,,1,,,,,1,,,,,1,1,1,1,1,1,1,1,,,,1,Defogging,0,,,,,1,,,,,1,1,1,,
43,"BASELERES, Jerome",0,2,,,,1,,,,1,,,,,1,1,,,,,,,,,,,,1,1,,,1,1,,1,,,,,,,,1,,,,,,1,,1,,,,4,,,1,,,1,,1,,1,,1,1,1,1,,,,,,1,,,1,,1,,,,,,,,1,,,,,1,,,,,1,1,1,1,1,1,1,,,1,,0,,0,,,,,,,,,,1,,,,1
44,"BASILIO, Katrina",0,0,,,1,1,,1,,1,,,1,,,1,1,,1,1,,1,,,,1,,1,,,,,1,,1,,,,,1,,,,,1,,,,,1,,,,,,,,0,,,,,0,,,,1,1,1,,,,,,1,,,,1,,,1,,,,,,,,,,,,1,,,,,1,1,,1,1,1,,,,1,,0,,0,,,,,1,,,,,1,1,,,
45,"BASMALA, Shai",0,3,,,1,,,,,,1,1,,,,1,,,,1,1,1,,,1,1,,1,1,1,,,,,1,,,,,1,,,,,,,1,,,,,1,,,,,,1,,,1,,0,,,,0,1,0,1,,,,,,1,,,1,,,1,,,,,,,,,,,,,,,,,0,,1,1,,,,,,,,0,,0,,,,,,,,,,1,,,,1
46,"BAUTISTA, Alyssa",0,0,,,1,1,1,,,1,,,,,,1,,,,,,,,,,,,1,1,,,,1,,,,,,1,,,,,1,,,,,1,,,,1,,,,,1,,,1,,0,,,,1,1,1,1,,,,,,,1,,1,,1,,,,,,,,,,,,,1,,,,,1,1,1,,1,1,,1,,,,0,,0,,,,,1,,1,,,0,,,,
47,"BELTRAN, Matthew",0,2,,,,1,,,,1,,,,,,,1,1,1,1,,1,1,1,,,,1,,,,,,,1,,,,,1,,,,,,,1,,,,,,1,,,,,1,,,1,,0,,,,1,1,1,1,,,,,,1,,,1,,1,,,,,,,,1,,,,,1,,,,,1,1,1,1,1,1,1,,,,,0,,1,,1,,,1,,,,,1,,1,,1
48,"BENEDICTOS, Thea",0,1,,,,1,,,,1,,,1,,,1,1,1,1,1,1,1,1,,1,1,,,,,,,1,,,1,,,,,1,,,,,1,,,,,1,,,,,,10,1,,,1,,1,,1,,1,1,1,1,,,,,,1,,,1,,,1,,,,,,,,,,,,1,,,,,1,1,1,1,1,1,1,1,,1,,0,,0,,,,,,,,,,1,1,1,,
49,"BERGONIA, Roy",0,2,,,1,1,1,1,,1,,,1,,1,1,1,1,1,1,,1,,,1,1,,1,1,1,,1,1,,1,,,,,1,,,,,,,1,,,,1,,,,4,,,1,,,1,,0,,,,1,1,1,1,,,,,,1,,,1,,1,,,,,,,,1,,,,,1,,,,,1,,1,1,1,,,,,,,1,domesticating cats to control mice/rats,1,1,1,1,,1,,,1,,1,1,1,1,
50,"BETIA, Lorenzo",0,1,,,1,1,1,1,,1,,,1,,,,1,1,1,1,1,1,,,1,1,,,1,,,,,,1,,,,,1,,,,,,,,1,,,1,,,,,,10,0,,,,,1,,1,,1,1,1,1,,,1,,,,,,1,,,1,,,,,,,,,,,,1,,,,,1,1,1,1,1,,1,,,,,1,"""pa-usok"",  racumin, inseticide",1,1,,1,,1,,,,,0,,,,
51,"BISQUERA, Edson",0,2,,,1,1,1,1,,1,,1,,1,,1,1,1,,,1,1,1,1,1,1,,1,1,,,,1,,,1,,,,,,1,,,,,1,,,,1,,,,,,10,1,,,1,,1,1,,,1,1,1,1,,,,,,,1,,1,,1,,,,,,,,1,,,,,1,,,,,1,1,,1,1,1,,,,,,1,pest spray,1,1,1,1,,1,1,1,1,,1,1,1,1,
52,"BITENG, Aleli",0,2,,,1,1,1,1,,1,,1,,1,,1,1,1,,,1,1,,,1,,,,1,,,,1,,1,,,,,1,,,,,,,,1,,,1,,,,,,10,1,,,1,,1,1,,,1,1,1,1,,,,,,1,1,,1,,,1,,,,,,,,,,,,1,,,,,1,,,1,1,1,,,,,,1,"Pest spray, poison",1,1,,1,,1,1,1,1,,1,1,1,1,
53,"BLAS, Lanz",0,3,,,,1,1,,,1,,,1,,,,1,,,,,,,,1,1,,,,,,,,,1,,,,,1,,,,,,1,,,,,,1,,,,,,0,,,,,0,,,,1,1,1,1,,,,,,,1,,1,,,1,,,,,,,,,,,,,,,1,,1,,1,,1,,1,1,,1,,0,,0,,,,,1,1,,,,0,,,,
54,"BORLASA, Raina",0,3,6,3,1,1,,1,,,1,1,,,,1,1,1,,,,1,,,1,1,,1,1,,,1,1,,1,,,,,1,,,,,,,1,,,1,,,,,,,,1,,,1,,1,,1,,1,1,1,1,,,,1,,,,,1,,1,,,,,,,,,1,,,,1,,,,,1,1,1,1,1,1,1,,,1,,1,Pausok (for mosquitoes),1,1,,,,1,,,1,,1,1,,,
55,"BORROMEO, Jamie",0,3,,,,,,,,1,,1,,,,1,1,1,,,1,1,,,1,1,,,1,,,1,1,,,,1,,,,,,,1,,,,,1,1,,,,,,,,1,,,1,,0,,,,1,1,1,1,,,,,1,,,,1,,1,,,,,,,,1,,,,,1,,,,,1,1,1,1,1,1,1,,,1,,0,,1,1,,,,,,,,,1,,1,,
56,"BRAVANTE, Joannalyn",0,3,,,1,,,,,,1,,,,,,1,,,,,1,,,1,1,,1,1,,,,,,1,,,,,1,,,,,,1,,,,,,1,,,,,,1,,,1,,1,,,1,1,1,1,1,,,,,,,1,,1,,,1,,,,,,,,,,,,1,,,,,1,1,1,1,1,1,1,,,1,,1,regular cleaning programs facilitated by NGOs,1,1,,,,1,,,,,1,,1,,
57,"BRIONES, Aila",0,1,,,1,,,1,,1,,,,1,,,1,,1,1,1,1,1,1,1,1,,1,1,1,,,1,,1,1,,,,,,,1,,,,,1,,,1,,,1,,,,1,,,,1,1,,1,,1,1,1,1,,,,,,1,1,1,1,,1,,,,,,,,1,,,,,1,,,,,1,1,1,1,1,1,1,,,1,,0,,1,1,1,1,,1,,,1,,1,1,1,1,
58,"BRIOSO, Marian",0,1,,,1,1,,1,,,1,,,,,,1,,1,1,1,1,1,1,1,1,,1,,1,,,1,,1,,,,,,,,,1,,,,,1,1,,,,,,,,1,,,1,,1,1,,,1,1,1,,,,,1,,,,,1,,1,,,,,,,,1,,,,,1,,,,,1,,,1,1,1,1,,,1,,0,,1,1,1,1,,,,,,,0,,,,
59,"BRITO, Loren",0,2,3,,1,1,1,,,1,,1,,,,,1,,1,1,1,1,1,1,1,1,,1,1,1,,,1,,1,1,,,,,,,1,,,,,1,,,,,1,,,,,1,,,1,,1,1,,,1,1,1,1,,,,,,1,,,1,,1,,,,,,,,1,,,,,1,,,,,1,,,1,1,,,,,1,,0,,1,1,1,1,,,,,,,1,,1,1,
61,"BUCAO, Riel",0,0,,,1,1,1,1,,1,,,1,1,,,1,,1,1,1,1,1,1,1,1,,1,1,1,,,1,,1,,,,1,,,,1,1,,,,1,1,,,1,,,,,,1,,,1,,1,1,,,1,1,1,1,,,,,,1,,,1,,1,,,,,,,,1,,,,,1,,,,,1,1,1,1,1,1,1,,,1,,0,,1,1,1,1,,1,,,1,,1,1,1,1,
62,"BULAN, Karelle",0,1,,,1,,1,,,1,,,1,,1,1,1,,1,1,,1,,,,1,,1,1,,,,1,,,,,,1,,,,,1,,,,,1,,,,1,,,,,1,,,1,,0,,,,1,1,1,1,,,,,,,,,1,,1,,,,,,,,1,,,,,1,,,,,1,,1,1,1,,,1,1,,,0,,0,,,,,,,,1,,0,,,,
63,"BUNAO, Maxine",0,3,,2,1,,,,,1,1,1,1,1,,1,,,1,1,,1,,,,1,,1,1,,,,1,,1,,,,,,,,1,,,,,1,,,,,1,,,,,1,,,1,,0,,,,1,1,1,,,,,,1,1,,,1,,1,,,,,,,,1,,,,,1,,,,,1,,1,1,1,,,1,,1,,1,spray Baygon,0,,,,,,,,,,1,,1,,
64,"BURGOS, Roberta",0,0,,,1,,1,,,1,,,,,,,1,,1,,,1,,,,1,,,1,,,,,,,1,,,,,1,,,,1,,,,,1,,,,,,,,1,,,1,,0,,,,1,1,1,1,,,,,,,,,1,,1,,,,,,,,1,,,,,1,,,,,1,1,1,1,1,1,1,,,1,,1,spray Baygon,0,,,,,,,,,,1,1,1,,
65,"BUSOG, Bea",0,1,,,1,,1,,,,1,,1,,1,1,1,1,1,1,1,1,1,1,1,1,,1,1,1,,1,1,,,,,,1,,1,,,1,,,,,1,1,,,,,,,,1,,,1,,1,,,1,1,1,1,1,,,,,,,,,1,,1,,,,,,,,1,,,,,1,,,,,1,1,1,1,1,1,1,1,,1,,1,Insect Sprays,1,1,1,1,,1,1,1,1,,1,1,1,1,
66,"BUTRON, Gea",1,1,,,1,,,,,,1,,1,1,1,1,1,,,1,1,,,,1,1,,1,1,,1,,1,,,1,,,,,1,,,,,,,1,,,,1,,,,,,1,,,1,,1,,1,,1,1,1,,1,,,,,,,,0,,,,,,,,,,,,,,,1,,,,,1,1,1,,1,1,1,,,1,,1,Pest spray,1,,,,1,,,,,1,1,,,,1
67,"BUZON, Glynis",0,2,9,,1,1,1,,,,1,,1,1,1,1,1,,,1,1,1,,,1,1,,1,1,,1,1,,,,,1,,,,,1,,,,,1,,,,,1,,,,,,1,,,1,,0,,,,1,1,1,1,,,,,,,,,1,,,1,,,,,,,,,,,,1,,,,,1,1,1,1,1,1,,,,1,,0,,0,,,,,1,,,,,1,1,,,1
68,"CABAL, Angeline",1,2,3,,1,,,1,,1,1,,,1,,1,1,,1,,1,1,,1,1,1,,1,1,,1,1,1,,1,,,,,1,,,,,1,,,,,,1,,,,,,10,1,,,1,,1,,,1,1,1,1,1,,,,,,,1,,0,,,,,,,,,1,,,,,,1,,,,,1,1,1,1,1,1,1,,,1,,0,,0,,,,,1,,,1,,1,,,,1
69,"CABUJAT, Kurt",0,2,,,1,,1,1,,1,,1,,1,1,1,1,1,1,1,1,1,1,1,1,1,,1,1,,1,1,1,,1,1,,,,1,1,,,,1,1,1,,,,,,1,,,,,1,,,1,,0,,,,1,1,1,1,1,,,,,,,,1,,1,,,,,,,,1,,,,,1,,,,,1,1,,1,,1,1,,,1,,1,Pausok,1,,,1,,1,,,1,,1,1,1,,
70,"CACAYURAN, Patrisha",0,0,,,1,,,,,1,,,,,,,1,,1,,1,1,1,1,,,,,1,,,,1,,,,,,1,,,,,1,,,,1,,,,,1,,,,,1,,,1,,1,1,,,1,1,1,1,,,,,,,1,,1,,1,,,,,,,,1,,,,,1,,,,,1,1,1,1,1,1,1,1,,1,,1,Fumigation,1,,,,1,1,,,,,1,,1,,
71,"CACHOLA, Lorenz",,2,5,,1,,,,,1,,1,,,,,1,,,,1,1,,,,1,,,1,,,,,,,,,,1,,,,,1,,,,1,,,,1,,,,,,1,1,,,,1,,,1,1,1,1,,,,1,,1,,,,1,,,1,,,,,,,,,,,,1,,,,,1,1,1,1,1,1,,,,1,,0,,1,1,,,,,,,1,,1,1,1,,
72,"CACULITAN, Marina",1,2,5,,,1,,,,1,,,1,1,,,1,,,,,1,,,,,,,1,,1,1,,,,,1,,,,,,1,,,,,1,,,,,1,,,,,1,,,1,,0,,,,1,1,1,1,,,1,,,,1,,1,,1,,,,,,,,,1,,,,1,,,,,1,1,1,1,1,1,1,1,1,1,,1,Fumigation,1,1,,,,1,,,,,1,,,,1
73,"CALAYCAY, Arvin",0,0,,,1,,,,,1,,,,,1,1,1,,,,,1,,,,,,,,,,,,,,1,,,,,1,,,,,,,,1,,,1,,,,,,1,,,1,,0,,,,1,1,1,1,,,,,1,,1,,1,,,1,,,,,,,,,,,,1,,,,,1,1,1,1,1,1,1,,,1,,0,,1,1,,,1,1,,,,,1,,,1,
74,"CAPUNO, Larry",0,0,,,1,,,,,,1,1,,1,,1,1,,1,1,1,1,,,1,1,,1,1,1,,,,,1,,,,,,,,1,,,,,1,,,1,,,,,,10,1,,,1,,1,,,1,1,1,1,1,,,,,,1,,,1,,1,,,,,,,,,1,,,,1,,,,,1,,1,1,,1,1,,,,,1,"Spray, Spay and Neuter",0,,,,,,,,,,1,,1,,
75,"CARAIG, Rochelle",0,1,,,,,,1,,1,,,,,,1,,,,,,,,,,,,,1,,,,1,,1,,,,,1,,,,,1,,,,,,1,,,,,,10,1,,,1,,1,,1,,1,1,1,1,,,,,,1,,,1,,1,,,,,,,,,1,,,,1,,,,,1,1,1,1,1,1,1,1,,,,1,Clean environment,1,1,,,,1,,,,,1,1,1,,1
76,"CARREON, Ana",1,2,5,,1,1,,,,,,1,,,1,1,1,,1,1,1,1,1,1,1,1,,1,1,1,,,1,,,1,,,,,,,1,,,1,,,,,,1,,,,,,1,,,1,,1,1,,,1,1,1,1,,,,,,,,,1,,,1,,,,,,,,,,,,1,,,,,1,1,1,1,1,,,,,,,1,Mosquito coil,1,,1,,,1,,,,,1,,,1,
77,"CARREON, David",0,2,5,,1,1,1,,,1,,,,,1,1,1,1,1,,1,1,1,1,1,1,,1,1,,,1,1,,1,,,,,1,,,,,,,,,1,,,,1,,,,,0,,,,,0,,,,1,1,1,1,,,,,,,1,,1,,,1,,,,,,,,,,,,1,,,,,1,1,1,1,1,,,,,,,0,,0,,,,,1,,,,,0,,,,
78,"CASIPIT, Ranica",0,1,,,1,,1,1,,1,,,1,,1,1,1,1,1,1,1,1,1,1,1,1,,,1,,1,,1,,,,1,,,,,1,,,,,1,,,,,1,,,,,,1,,,1,,1,,,1,1,1,1,,1,,,,,,1,,1,,,1,,,,,,,,,,,,1,,,,,1,1,1,1,1,1,1,,,1,,1,Spraying of pesticides,1,1,,,,,,,,,1,1,1,,
79,"CASTILLO, Milagros",0,2,4,,1,1,,,,1,,1,1,,1,,1,,1,1,1,1,1,,,1,,,1,,,,1,,1,,,,,,,1,,,,,1,,,1,,,,,,,,1,,,1,,0,,,,1,1,1,1,,,,,,,,,1,,,1,,,,,,,1,,,,,1,,,,,1,1,1,1,1,1,,1,,1,,0,,1,1,,,,1,,,,,1,1,1,,
80,"CASTRO, John",0,3,,4,1,1,,1,,1,1,1,1,1,,1,1,1,1,1,1,1,1,,1,1,,,1,,,,1,,,,1,,,,,,,1,,,,,1,1,,,,,,,,1,,,1,,1,1,,,1,1,1,1,,,,,,1,1,,1,,,1,,,,,,,,,,,,1,,,,,1,1,1,1,1,1,1,1,,1,,1,Pest terminators,0,,,,,1,,,,,1,1,1,,
81,"CASTRO, Nina",0,1,,,1,1,,1,,1,,1,,1,1,1,1,,1,1,1,1,1,1,,1,,,1,,1,,1,,1,,,,,1,,,,,,,,1,,,,,1,,,,,1,,,1,,1,,,1,1,1,1,,1,,,,,,,,,,,,,,,,,,,,,,,,,,,,1,1,1,1,1,1,1,,,1,,0,,1,1,1,1,,1,,,,,1,,,,1
82,"CASTRO, Patricia Bernice",0,3,,8,1,1,,,,1,,1,,1,1,,1,,,,,1,,,1,1,,,1,,,,,,1,,,,,1,,,,,,,,1,,,,,1,,,,,1,,,1,,1,,1,,1,1,1,1,,,,,1,,,,1,,,,,,,,,,,,,,,1,,,,,1,1,1,1,1,1,,,,,,0,,1,1,,,,,,,1,,0,,,,
83,"CATALAN, Lawrence",0,1,,,,1,,,,1,,1,1,1,1,,,,,,,,,,1,1,,1,1,1,1,,1,,1,,,,,1,,,,,,,,1,,,,,1,,,,,1,,,1,,1,1,,,1,1,1,1,,,,,,1,1,,1,,1,,,,,,,,1,,,,,1,,,,,1,1,1,1,1,1,1,,,1,,0,,1,1,,1,,1,1,1,1,,1,1,1,,
84,"CATRAL, Psymon",0,1,,,1,1,,,,1,,1,1,1,1,,1,,,,,,,,1,1,,,1,,,,,,1,,,,,1,,,,,,,,,1,,,1,,,,,,1,,,1,,1,,,1,1,1,1,1,1,,1,,,,,,0,,,,,,,,,,,,,,,,,,,,0,,,,,,,,,,,,,1,1,1,1,,1,,,,,1,,,1,
85,"CATUBIGAN, Jessiraye",0,1,,,1,1,1,,,,1,,1,,1,1,1,1,1,1,1,1,1,1,1,1,,1,1,1,1,1,1,,,,,,1,,,,,1,,,,1,1,,,1,,,,,,1,,,1,,1,,1,,1,1,1,,,,1,,,,,,1,,,1,,,,,,,,,,,,1,,,,,1,,1,,,,1,,,,,0,,1,1,,1,,1,,,1,,1,,,,1
86,"CATUIRAN, Hannah",0,1,,,1,1,,,,1,,,1,,1,1,1,,1,1,1,1,1,1,1,,,1,1,1,,,1,,,,1,,,,,1,,,,,,1,,1,,,,,,,,1,,,1,,0,,,,1,1,1,1,,,1,,,1,1,,1,,1,,,,,,,,,1,,,,1,,,,,1,1,1,1,1,1,1,,,1,,1,Animal Posioning (Mice/Rats),1,1,,1,,1,,,,,1,,1,,
87,"CENGCA, Rhenea",0,0,,,1,,,,,1,,1,,,1,,1,,1,1,1,1,,,1,1,,1,1,,1,,1,,,1,,,,,1,1,,,,,,1,,,,,1,,,,,1,,,1,,0,,,,1,1,1,1,,,,,,,,,1,,,1,,,,,,,,,,,,1,,,,,1,1,1,1,1,1,1,1,,1,,0,,1,1,1,1,,1,1,,,,1,1,1,,1
88,"CHACON, Gabriel",,,,,,,,,,,,,,,,,,,,,,,,,,,,,,,,,,,,,,,,,,,,,,,,,,,,,,,,,,,,,,,,,,,,,,,,,,,,,,,,,,,,,,,,,,,,,,,,,,,,,,,,,,,,,,,,,,,,,,,,,,,,,,
89,"CHAN, Mic",0,3,,6,1,1,,1,,1,,,1,,,1,1,1,1,1,,1,,,,1,,1,1,1,1,,1,,1,,,,,1,,,,,1,,,,,,,1,,,,,,1,,,1,,0,,,,1,1,1,,1,,,,,,1,,1,,,1,,,,,,,,,,,,1,,,,,1,1,1,1,1,1,1,1,,1,,1,Rabies vaccine for dogs,1,1,,1,,1,,,,,0,,,,
90,"CHAN, Victorienne",0,3,,,,1,,,,1,,,1,1,1,1,1,1,1,1,1,1,,,1,1,,,1,,,1,1,,,,1,,,1,,,,,1,,,,,,1,,,,4,,,1,,,1,,1,,1,,1,1,1,1,,,,,,1,1,,1,,1,,,,,,,,1,,,,,1,,,,,1,1,1,1,1,1,1,,,1,,0,,1,1,1,1,,1,,1,1,,1,1,1,,
91,"CHENG, Ira",0,3,,3,,,1,1,,1,1,,,,,,1,1,1,,1,1,,,1,1,,,1,,,1,,,,,,,1,,,,1,,,,,1,,,,,1,,,,,1,,,1,,1,1,,,1,1,1,1,,,,,,,,,1,,1,,,,,,,,1,,,,,,,,1,,1,1,1,1,1,1,1,,,1,,1,mosquito killer swatter ,1,1,,1,,1,,,1,,1,1,1,,
92,"CHNY, Josephine",0,2,6,,1,,,1,,1,,1,,,1,1,1,1,,,,1,,,1,1,,,1,1,,,1,,,1,,,,,,,1,,,,,1,,1,,,,,,,,1,,,1,,0,,,,1,1,1,1,,,,,,1,1,,1,,1,,,,,,,,1,,,,,1,,,,,1,1,1,1,1,1,1,1,,1,,0,,0,,,,,,,,,,1,1,1,,
93,"CHUA, Denver",0,3,,,1,,1,,,,1,,,,,,1,1,1,1,,1,,,,1,1,,1,,,,,,1,,1,,,1,,1,,,1,,1,,,,,1,,,,,,1,,,1,,0,,,,1,1,1,1,,,,,,,,,1,,1,,,,,,,,,1,,,,,,,1,,1,,1,,1,1,,,,1,,0,,1,1,,,,1,,,1,,1,1,1,,
94,"CHUA, James",0,1,,,1,1,1,,,1,,,,,1,1,1,1,1,,1,1,1,1,1,1,,1,1,,,1,1,,,,1,,,,,,,1,,,,,1,,,,1,,,,,1,,,1,,0,,,,1,1,1,1,,,1,,,,,,1,,1,,,,,,,,1,,,,,,,1,,,1,1,1,1,1,1,1,,,1,,1,"for mosquito = katol, for chickens = cages",1,1,,1,,1,1,,1,,1,1,1,,1
95,"CHUA, Renzo",0,1,,,1,1,,1,,1,,,,,,1,1,1,1,,1,1,1,,1,1,,,1,,,,1,,1,,,,,1,,,,,,,,1,,,,,1,,,,,1,,,1,,1,,1,,1,1,1,1,,,,,,,,,1,,,1,,,,,,,1,,,,,1,,,,,1,,,1,1,1,1,1,,1,,0,,1,1,,,,1,,,,,1,1,1,1,1
96,"CHUA, Vinelle",0,3,,,1,,,,,1,,,1,1,,1,1,1,1,1,1,1,,,,1,,,1,,,,,,1,,,,,1,,,,,,,,1,,,,,1,,,,,1,,,1,,1,,1,,1,1,1,1,,,,,,1,,,1,,1,,,,,,,,1,,,,,1,,,,,1,1,1,,,1,,,,,,0,,0,,,,,1,,,1,,1,1,1,,
97,"CLAVER, Xian",0,1,,,,1,,,,1,,,,,,1,1,,1,,1,1,,,,1,,1,1,,,,1,,,,1,,,,,1,,,,,1,,,,1,,,,4,,,1,,,1,,0,,,1,1,1,1,1,,,,,,,,,1,,,1,,,,,,,1,,,,,1,,,,,1,1,1,1,1,1,1,,,1,,0,,1,1,,,,,,,,,1,,,,1
98,"CLOSA, Neil",0,0,,,1,,,,,1,,,,,1,,1,,,,,1,,,,1,,,1,,,,,1,1,,,,,1,,,,,1,,,,,,,1,,,,,,1,,,1,,1,1,,,1,1,1,1,,,,,,,,,1,,,1,,,,,,,,,,,,1,,,,,1,1,1,1,1,,1,,,1,,1,Spray insect repellent (Baygon),0,,,,,1,,,1,,1,,1,,
99,"CONCEPCION, Therese",1,0,,,1,1,1,1,,1,,,1,,,1,1,1,,,1,1,1,1,1,1,,,1,1,,1,1,,,,,,1,,,,1,,,,,1,,,,,1,,,,,0,,,,,0,,,,1,1,1,1,,,,,,1,,,1,,1,,,,,,,,1,,,,,1,,,,,1,1,1,1,,1,1,,,1,,0,,1,1,1,1,,1,,,,,0,,,,
100,"CONTI, Mark",,,,,1,1,1,,,,,,,,1,1,1,,1,1,,1,,1,1,1,,,1,1,1,1,1,,1,,,,,,,,1,,,,,1,,1,,,,,,,,1,,,1,,0,,,,1,1,1,1,,,,,,,,,1,,1,,,,,,,,1,,,,,1,,,,,1,1,1,1,1,1,1,,,1,,0,,0,,,,,1,,,,,,,,,
101,"CORDERO, Keren",1,3,,7,1,,,,,1,,,,,1,1,1,1,1,1,1,1,,,1,1,,1,1,1,1,1,1,,1,,,,,1,,,,,,,,1,,,,1,,,,,,1,,,1,,1,1,,,1,1,1,1,,,,,,,,,1,,1,,,,,,,,1,,,,,1,,,,,1,,1,1,1,1,,,,,,1,Bring in cats to control rats,1,1,1,1,,,,,,,1,1,1,1,
102,"CORONACION, Cygfred",1,0,,,,1,,,,1,1,,,1,,1,1,,1,1,1,1,,1,1,1,,1,1,,,,1,,,,,,1,1,,,,,1,,,,,,1,,,,,,10,1,,,1,,1,1,,,1,1,1,,1,,,1,,1,1,,1,,1,,,,,,,,1,,,,,1,,,,,1,,,,,1,1,,,,,1,Rabies vaccine,1,1,,1,,,,,,,0,,,,
103,"CORPUZ, Hanna",0,3,,4,1,1,,,,1,,1,,1,,,1,1,,,,1,,,1,1,,,1,,,,,,,,1,,,,,1,,,,,,,1,,,,1,,,,,1,,,1,,0,,,,1,1,1,1,,,1,,,1,,,1,,,1,,,,,,,,,,,,1,,,,,1,1,1,1,1,1,1,1,,1,,1,Fumigation,0,,,,,1,,,,,1,1,1,,
104,"COSICO, Gian",0,1,,,1,,,,,,,,,1,,,,,,,,,,,1,1,,1,1,,,,,,1,1,,,,1,1,,,,,,1,,,1,,,,,,,,1,,,1,,1,,,,1,1,1,1,,,1,,,1,1,1,1,,1,,,,,,,,1,,,,,1,,,,,1,1,1,1,1,1,,,,1,,0,,1,,,1,,,,,,,1,,,1,1
105,"CRESENCIO, Diane",0,1,7,,,1,,,,1,1,,,1,1,,1,1,1,1,1,1,,1,1,1,,1,1,1,,,1,,,,1,,,,,1,,,,,1,,,,,1,,,,,,1,,,1,,1,,1,,1,1,1,1,,,1,,,,,,1,,,,,,,,,,1,,,,,1,,,,,1,1,1,1,1,1,,,,,,0,,1,,,,1,1,,,,,1,,,,1
106,"CRUZ, Jeanne",0,3,,2,1,1,1,,,1,,,1,1,,,1,1,,,,1,,,1,1,,,1,,,1,,,,,1,,,,,1,,,,,,,1,,,,1,,,,,1,,,1,,0,,,1,1,1,1,1,,,1,,,1,,,1,,,1,,,,,,,,,,,,1,,,,,1,1,1,1,1,1,1,1,,1,,1,"Fumigation, previously",0,,,,,1,,,,,1,1,1,,
107,"CRUZ, Princess",0,0,,,,1,,,,1,,,,1,,1,1,,1,,1,1,,,1,1,,,1,,,1,1,,,1,,,,1,,,,,,,,,1,,,,1,,,,,1,,,1,,1,1,,,1,1,1,1,,,,,,1,1,1,1,,1,,,,,,,,1,,,,,1,,,,,1,1,,1,1,1,1,,,,,1,pausok,1,,,1,,1,,,,,1,1,1,,1
108,"CUETO, Mason",,,,,,,,,,,,,,,,,,,,,,,,,,,,,,,,,,,,,,,,,,,,,,,,,,,,,,,,,,,,,,,,,,,,,,,,,,,,,,,,,,,,,,,,,,,,,,,,,,,,,,,,,,,,,,,,,,,,,,,,,,,,,,
109,"CUNANAN, Denise",0,0,,,,1,,,,1,,,,1,,1,1,,1,,1,,,,1,1,,,1,,,1,1,,,1,,,,1,,,,,,,,,1,,,,1,,,,,1,,,1,,1,1,,,1,1,1,1,,,,,,1,1,1,0,,1,,,,,,,,1,,,,,1,,,,,1,1,,1,1,1,1,,,,,1,Pausok,1,,,1,,1,,,,,1,1,1,,1
110,"CUPIADO, Karl",0,2,4,,,1,,,,1,,,,,1,1,1,1,1,,1,1,1,1,1,,,1,1,1,,,1,,,1,,,,,,,,1,,,,,1,,,,1,,,,,1,,,1,,0,,,,1,1,1,1,,,,,,1,,,1,,1,,,,,,,,1,,,,,1,,,,,1,,1,,1,,,,,,,1,Spray,1,1,,,,,,,,,1,1,,1,
111,"CUSTODIO, Laura",0,1,,,1,1,,,,1,,1,1,1,,1,1,,1,1,1,1,1,,,1,,,,,,,1,,1,,,,,,,1,,,,,1,,,,,,1,,,,,1,,,1,,1,1,,,1,1,1,1,,,,,,,1,,1,,1,,,,,,,,1,,,,,1,,,,,1,1,1,1,1,1,1,,,,,0,,0,,,,,,,,,,1,,1,,
112,"DAMASCO, Jose",0,3,,,1,1,,,,1,,,1,1,1,1,1,1,1,1,1,1,1,1,1,1,,1,,,,,,,1,,,,,,,,1,,,,,1,,,,1,,,,,,1,,,1,,1,,1,,1,1,1,1,,,,,,1,,,1,,,1,,,,,,,,,,,,1,,,,,1,1,1,1,1,,,1,,,,0,,0,,,,,1,,1,,,1,,1,,
113,"DANNUG, Claudenne",0,0,,,1,,1,1,,1,,,1,1,1,,,,,,,,,,,,,,1,,,,1,,,1,,,,,,1,,,,,1,,,,,1,,,,,,1,,,1,,1,,,1,1,1,1,1,,,,,,,,,1,,1,,,,,,,,1,,,,,1,,,,,1,1,1,1,1,1,1,,,,,0,,0,,,,,1,,,,,0,,,,
114,"DAVID, Camille",0,0,,,1,,,1,,1,,,1,,1,1,1,,,,,1,,,1,1,,,1,,,1,,,,,1,,,,,,,1,,,,,1,,,1,,,,,,1,,,1,,0,,,,1,1,1,,,,,,,,,,1,,1,,,,,,,,1,,,,,1,,,,,1,1,1,1,1,1,1,,,1,,0,,1,1,,,,,,,,,1,1,1,,
115,"DAVID, Fretelin",0,1,,,1,,1,1,,1,,1,,,,1,1,1,1,1,1,1,1,1,1,1,,,1,,,1,1,,,,,,1,,,,1,,,,,1,,,1,,,,4,,,1,,,1,,1,,1,,1,1,1,1,,,,,,,,,1,,1,,,,,,,,1,,,,,1,,,,,1,1,1,1,1,1,1,,,1,,1,"Off lotion, katol, bomba",0,,,,,1,,,,1,0,,,,
116,"DE DIOS, Tim",0,0,,,,,1,1,,1,,,,,,1,,1,1,,1,,1,1,1,1,,,1,,,,1,,1,,,,,1,,,,,,,,1,,1,,,,,,,,1,,,1,,1,,1,,1,1,1,1,,,,,,,,,1,,,1,,,,,,,,,,,,1,,,,,0,1,1,1,1,,,,,,,1,Katol,1,1,,1,,1,,,1,,0,,,,
117,"DE GUZMAN, Alyssa",0,1,,,1,1,,,,1,,,1,1,1,1,1,1,1,1,,1,1,1,1,1,,,1,1,,1,1,,,,1,,,,,1,,,,,1,,,,,,1,,,,,1,,,1,,0,,,,1,1,1,1,,,,,,,,1,1,,1,,,,,,,,1,,,,,1,,,,,1,1,1,1,,1,1,,,,,0,,1,1,,1,,1,1,,1,,0,,,,
118,"DE GUZMAN, John Ruwen",0,3,,,1,1,1,,,1,,,1,,1,1,1,,1,1,,,1,1,1,,,,1,1,,1,1,,,,1,,,,,1,,,,,,,1,,,,1,,,,,1,,,1,,0,,,,1,1,1,1,,,,,,,,,1,,1,,,,,,,,1,,,,,1,,,,,1,1,1,,1,1,,,,,,0,,0,,,,,1,1,1,1,,0,,,,
119,"DE GUZMAN, Jose Antonio",0,3,,,1,,,,,1,,,1,1,,1,1,1,1,1,1,,1,1,1,1,,,1,,,,1,,,,1,,,,,1,,,,,1,,,,,1,,,,,,1,,,1,,0,,,,1,1,1,1,,,,,,1,1,,1,,1,,,,,,,,1,,,,,1,,,,,1,1,1,1,,1,,,,1,,0,,0,,,,,1,,1,1,,0,,,,
120,"DE JESUS, Hannah",0,2,7,,,,,1,,,1,,1,1,,,1,,,,,,,,,,,,1,,,,1,,1,,,,,1,,,,,,,,,1,,,,1,,,,,1,,,1,,1,1,,,1,1,1,1,,,,,,,,,1,,1,,,,,,,,1,,,,,1,,,,,1,,1,,1,1,1,1,,1,,1,Insecticides,0,,,,,1,,,,,0,,,,
121,"DE MESA, Arianne",0,3,,,1,1,1,,,1,,,,,,,1,1,1,1,1,1,1,1,1,1,,,1,1,,1,1,,,,1,,,,,1,,,,,,1,,,,,1,,,,,1,,,1,,1,,1,,1,1,1,1,,,,,1,,,,1,,1,,,,,,,,1,,,,,1,,,,,1,1,1,1,1,1,1,1,,1,,1,Chalk,0,,,,,1,,,1,,0,,,,
122,"DEL CARMEN, Aileen",0,0,,,,,,1,,1,,,1,1,,1,1,,1,,1,1,,,1,1,,1,1,,,,,,1,,,,,1,,,,,,,1,,,,,1,,,,,,1,,,1,,0,,,,1,0,1,,,,,,1,,,,1,,1,,,,,,,,,1,,,,1,,,,,1,,1,1,1,1,,,,1,,1,using katol for mosquito,1,1,,1,,1,,,1,,1,,1,,
123,"DELA CRUZ, Justin Jairo",0,1,,,1,1,1,,,1,,,1,1,,,1,1,1,1,,,,,,1,,,1,1,,,1,,1,,,,,1,,,,,,,,,1,,,1,,,,,,1,,,1,,0,,,,1,1,1,1,,,,,,1,1,,1,,1,,,,,,,,1,,,,,1,,,,,1,,1,1,1,1,,,,,,1,Fumigation,0,,,,,1,,,,,0,,,,
124,"DELA PEDRA, Jewel",0,2,,,1,1,,,,1,,1,,,,,1,,1,1,1,1,,,1,1,,,1,,,,1,,,,1,,,,,1,,,,,,,1,,,1,,,,,,1,,,1,,1,,1,,1,1,1,1,,,,,,,,,1,,,1,,,,,,,,,,,,,,1,,,1,1,1,1,1,1,1,,,1,,1,"Fumigation, use of katol",1,1,,1,,1,,,,,1,1,1,,
125,"DELARIARTE, Misha",0,0,,,1,1,,,,1,,,,,,,1,,1,,,1,,1,1,1,,1,1,1,,,1,,1,,,,,,,,1,,,,,,1,1,,,,,,,,1,,,1,,1,1,,,1,1,1,1,,,,,,1,1,,1,,,1,,,,,,,,,,,,1,,,,,1,1,1,1,1,1,1,,,1,,1,Fogging,0,,,,,1,1,1,1,,0,,,,
126,"DELOS REYES, Erika",0,3,,,1,,1,,,1,,1,,,1,,1,1,1,1,1,1,1,1,1,1,,1,1,,,,1,,,1,,,,,1,,,,,1,,,,,,1,,,,,,0,,,,,1,1,,,1,1,1,,,,,,1,,,,1,,1,,,,,,,,1,,,,,1,,,,,1,,1,1,1,1,1,,,,,1,nagpapausok,1,1,,,,1,,,,,1,1,,,
127,"DEUNA, Jenyll",0,2,4,,,1,,,,,1,1,,1,1,,1,1,1,1,1,1,1,1,1,1,,,1,,,,1,,,1,,,,,1,,,,,1,,,,1,,,,,,,,1,,,1,,1,,1,,1,1,1,1,,,,,1,,,,1,,1,,,,,,,,1,,,,,1,,,,,1,,1,1,1,1,1,,,,,0,,1,1,,,,1,,,,,0,,,,
128,"DIGAMO, Stephan",0,2,4,,,1,,,,1,,,,,1,1,1,1,1,1,1,1,1,1,1,1,,1,1,,,,,,1,,,,,1,,,,,1,,,,,,1,,,,4,,,1,,,1,,0,,,,1,1,1,,1,,,,,,,,1,,1,,,,,,,,,,,,,1,,,,,1,,,,1,,,,,,,0,,1,1,1,1,,,,,,,1,1,1,1,
129,"DIMARANAN, Janisse",0,2,3,,,1,,,,1,,,,,1,1,1,1,1,1,1,1,1,1,1,1,,1,1,,,,,,1,,,,,,,,,1,,,,,1,,,,1,,,,,1,,,1,,1,,1,,1,1,1,,1,,,,,,,,1,,1,,,,,,,,1,,,,,1,,,,,1,,,,1,,,,,,,0,,1,1,1,,,1,1,1,1,,1,1,1,1,
130,"DOLOR, Novaya",0,2,2,,1,,,1,,1,,,1,,,,1,,1,1,1,1,,,1,1,,,1,,,,1,,,,1,,,,,,1,,,,,1,,,,,1,,,,,1,,,1,,0,,,,1,1,1,1,,,,,1,1,,,0,,1,,,,,,,,1,,,,,,,,1,,1,,,1,1,1,1,,,,,0,,0,,,,,1,,,1,,1,1,1,,1
131,"DONES, Ronalee",0,3,,2,1,1,1,,,1,,,1,1,,,1,1,,,,1,,,1,1,,,1,,,,,,,,1,,,,,1,,,,,,1,,,,,1,,,,,1,,,1,,0,,,,1,1,1,1,,,1,,,,,,1,,,1,,,,,,,,,,,,1,,,,,1,1,1,1,1,1,1,1,,1,,1,fumigation,0,,,,,1,,,,,1,1,1,,
132,"DRAPER, Yssa",0,0,,,1,1,,,,1,,1,,1,1,1,1,1,1,1,1,1,1,1,1,1,,1,1,1,,,1,,,,1,,,,,,,1,,,,,1,,,1,,,,,,1,,,1,,1,1,,,1,1,1,1,,,,,,,,,1,,1,,,,,,,,1,,,,,1,,,,,1,1,1,1,1,1,1,,,1,,1,Spraying of pesticides,0,,,,,,,,,,1,,,,1
133,"DUNGCA, Ben",0,3,,,,1,,,,,,,1,,1,,1,1,1,1,1,1,1,1,1,1,,,1,,,1,1,,,,1,,,,,,,1,,,,,1,,,1,,,,,,0,,,,,1,1,,,1,1,1,1,,,,,,,,,1,,1,,,,,,,,1,,,,,,,1,,,1,1,1,1,1,1,1,,,1,,0,,0,,,,,,,,,,1,1,1,,
134,"EDUARDO, Andrew",0,2,4,,1,,1,,,,1,1,,1,,1,,1,1,1,1,1,1,1,1,1,,1,1,1,,1,1,,,1,,,,,1,1,,,,,,,1,,,,1,,,,,1,,,1,,1,,1,,1,1,0,1,,,,,,,,,1,,1,,,,,,,,1,,,,,1,,,,,1,,1,1,1,1,,,,1,,1,Cleaning,0,,,,,1,,,,,1,,1,,
135,"EMMANUEL, Dave",1,,,,1,,,,,1,,,,,,1,1,1,1,,1,1,1,1,1,,,,1,,,,1,,1,,,,,,,,1,,,,,1,,,,1,,,,,,1,,,1,,1,1,,,1,1,1,1,,,,,,,1,,1,,1,,,,,,,,1,,,,,1,,,,,1,1,1,1,1,1,1,1,,1,,1,,1,1,,,,1,1,1,,,1,1,1,,
136,"ENAJE, Shana",0,1,,,1,,,,,,1,1,,1,1,,1,,1,1,,1,,,1,1,,1,1,,,,,,,,1,,,,1,,,,,1,,,,1,,,,,,,,1,,,1,,1,1,,,1,1,1,1,,,,,,,1,,1,,1,,,,,,,,,1,,,,1,,,,,1,,1,,,,,,,,,0,,1,,,1,,1,1,1,1,,0,,,,
137,"ENGAY, Nina",0,1,,,1,1,,,,,1,,1,1,1,,1,1,1,,1,1,,,1,1,,1,1,,,1,1,,1,,,,,,,,1,,,,,1,,,,1,,,,,,1,,,1,,0,,,,1,1,1,1,,,,,,,1,,1,,1,,,,,,,,1,,,,,1,,,,,1,1,1,1,1,1,1,1,,1,,1,spray with insecticides,1,1,,,,1,,,1,,0,,,,
138,"ENRIQUEZ, Zia",,0,,,,1,,,,1,1,1,,,,1,1,,1,1,,,,,,,,,1,1,,,,,,,1,,,,,1,,,,,,,1,,,1,,,,,,0,,,,,0,,,,1,1,1,1,,,,,,,1,,1,,1,,,,,,,,,,,,,1,,,,,1,1,1,1,1,1,1,1,,,,0,,1,,1,1,,1,,,,,1,,1,,
139,"ESGUERRA, Deborah",0,0,,,1,,,,,1,,,1,,,1,1,,1,1,,1,,1,1,,,1,1,1,,,1,,,1,,,,,1,,,,,,1,,,,,1,,,,,,1,,,1,,1,,,1,1,1,1,1,,,,,,1,,,1,,1,,,,,,,,,,1,,,1,,,,,1,1,1,1,1,,1,,,,,0,,1,1,,,,1,,1,,,0,,,,
140,"ESGUERRA, Denise",0,3,,,,1,,,,1,,,1,,1,1,1,,1,1,1,1,1,1,1,1,,,1,1,,1,1,,,,1,,,,,1,,,,,,,1,,,,1,,,,,0,,,,,1,,,1,1,1,1,1,,,,,,,1,,1,,1,,,,,,,,1,,,,,1,,,,,1,1,1,1,1,1,1,1,,1,,0,,0,,,,,1,,,,,1,,1,,
141,"ESPARAS, Carlotta",0,3,,,,1,,,,,1,,1,,,,1,1,1,,1,1,,1,1,1,,1,1,1,,1,1,,,,1,,,,,1,,,,,1,,,,1,,,,,,10,1,,,1,,1,,1,,1,1,1,1,,,1,,,1,1,,1,,1,,,,,,,,,,,,,1,,,,,1,1,1,1,1,1,1,1,,1,,1,Fumigation/Fogging,1,1,,,,1,,,,1,0,,,,
142,"ESPERAS, Ria",0,1,,,1,1,1,1,,1,,,1,,1,1,1,1,1,1,1,1,1,1,1,1,,,1,,,,,,1,,,,,1,,,,,,,,1,,,,1,,,,,,1,,,1,,1,,,1,1,1,1,1,,,,,,,,,1,,1,,,,,,,,1,,,,,1,,,,,1,1,1,1,1,1,1,,,,,0,,0,,,,,1,,,,,1,1,1,1,
143,"ESPINO, Oscar",0,0,,,1,1,,,,1,,1,,,1,1,1,1,1,1,1,1,,1,1,1,,1,1,1,1,,1,,1,,,,,1,,,,,,,,,1,,,1,,,,,,1,,,1,,0,,,1,1,1,1,1,,,,,1,,,,1,,1,,,,,,,,,,,,,1,,,,,1,1,1,1,1,1,1,,,,,0,,,1,,1,,1,,1,1,,1,1,1,,1
144,"ESTEVANEZ, Elizabeth",0,3,,,1,1,1,1,,,1,,1,,1,1,1,1,1,1,1,1,1,1,1,1,,,1,,,,1,,,,,,1,,,,,1,,,,,1,,,,1,,,,,1,,,1,,0,,,,1,1,1,1,,,,,,,,,1,,1,,,,,,,,1,,,,,1,,,,,1,1,1,1,1,1,1,,,1,,0,,1,1,1,1,,1,1,,,,1,1,1,,
145,"EXPECTACION, Nicole",0,3,,,1,1,,,,1,,,,,1,1,1,1,1,1,1,1,,1,1,1,,1,1,1,1,1,1,,1,,,,,1,,,,,,,,1,1,,,,1,,,,,1,,,1,,1,,,,1,1,1,,,,,,1,1,1,,1,,1,,,,,,,,1,,,,,1,,,,,1,,1,,1,1,1,,,,,1,pesticide and traps,1,1,,1,,1,,1,1,,1,1,1,,1
146,"FADALLAN, Angel",0,2,4,,,1,,,,1,1,,,1,,,1,,,1,,1,,,1,1,,1,1,,,,1,,,1,,,,1,,,,,,,,,1,1,,,,,,,,1,,,1,,1,1,,,1,1,1,,,,,,1,1,1,,1,,1,,,,,,,,1,,,,,,,,,,1,1,1,1,,1,1,1,,,,0,,1,1,,,,1,,,1,,1,1,1,,
147,"FAJARDO, Jazzmin",0,0,,,1,1,,,,1,,,1,1,,,1,,,,1,1,,,1,1,,1,1,,,1,,,1,1,,,,,,,1,1,,,,1,1,,,,1,,,,,1,,,1,,1,1,,,1,1,1,1,,,1,,,1,,,0,,,,,,,,,,,,,,,1,,,,,1,,1,1,1,1,,1,,,,1,"katol, poison rats",1,,,,1,1,,,1,,0,,,,
148,"FAJUTAR, Selina",0,2,,,1,1,,,,,,1,,,,,1,1,,,,1,,,1,1,,1,1,,,,,,,1,,,,,,,,1,,,,,1,,,,1,,,,,1,,,1,,1,1,,,1,1,1,1,,1,,,,,,1,1,,1,,,,,,,,1,,,,,1,,,,,1,,1,,,,,1,,,,1,Mosquito coil,0,,,,,,,,,,0,,,,
,,,,,,,,,,,,,,,,,,,,,,,,,,,,,,,,,,,,,,,,,,,,,,,,,,,,,,,,,,,,,,,,,,,,,,,,,,,,,,,,,,,,,,,,,,,,,,,,,,,,,,,,,,,,,,,,,,,,,,,,,,,,,,,
,,,,,,,,,,,,,,,,,,,,,,,,,,,,,,,,,,,,,,,,,,,,,,,,,,,,,,,,,,,,,,,,,,,,,,,,,,,,,,,,,,,,,,,,,,,,,,,,,,,,,,,,,,,,,,,,,,,,,,,,,,,,,,,
,,,,,,,,,,,,,,,,,,,,,,,,,,,,,,,,,,,,,,,,,,,,,,,,,,,,,,,,,,,,,,,,,,,,,,,,,,,,,,,,,,,,,,,,,,,,,,,,,,,,,,,,,,,,,,,,,,,,,,,,,,,,,,,
,,,,,,,,,,,,,,,,,,,,,,,,,,,,,,,,,,,,,,,,,,,,,,,,,,,,,,,,,,,,,,,,,,,,,,,,,,,,,,,,,,,,,,,,,,,,,,,,,,,,,,,,,,,,,,,,,,,,,,,,,,,,,,,
,,,,,,,,,,,,,,,,,,,,,,,,,,,,,,,,,,,,,,,,,,,,,,,,,,,,,,,,,,,,,,,,,,,,,,,,,,,,,,,,,,,,,,,,,,,,,,,,,,,,,,,,,,,,,,,,,,,,,,,,,,,,,,,
,,,,,,,,,,,,,,,,,,,,,,,,,,,,,,,,,,,,,,,,,,,,,,,,,,,,,,,,,,,,,,,,,,,,,,,,,,,,,,,,,,,,,,,,,,,,,,,,,,,,,,,,,,,,,,,,,,,,,,,,,,,,,,,
,,,,,,,,,,,,,,,,,,,,,,,,,,,,,,,,,,,,,,,,,,,,,,,,,,,,,,,,,,,,,,,,,,,,,,,,,,,,,,,,,,,,,,,,,,,,,,,,,,,,,,,,,,,,,,,,,,,,,,,,,,,,,,,
,,,,,,,,,,,,,,,,,,,,,,,,,,,,,,,,,,,,,,,,,,,,,,,,,,,,,,,,,,,,,,,,,,,,,,,,,,,,,,,,,,,,,,,,,,,,,,,,,,,,,,,,,,,,,,,,,,,,,,,,,,,,,,,
"DO NOT TOUCH ANYTHING BELOW, EXCEPT FOR THE PINK-COLORED CELLS FOR ''OTHERS""",,,,,,,,,,,,,,,,,,,,,,,,,,,,,,,,,,,,,,,,,,,,,,,,,,,,,,,,,,,,,,,,,,,,,,,,,,,,,,,,,,,,,,,,,,,,,,,,,,,,,,,,,,,,,,,,,,,,,,,,,,,,,,,
FINAL TALLY,,TOTAL NO. OF RESPONSES,SPECIFY 'OTHERS':,,,,,,,,,,,,,,,,,,,,,,,,,,,,,,,,,,,,,,,,,,,,,,,,,,,,,,,,,,,,,,,,,,,,,,,,,,,,,,,,,,,,,,,,,,,,,,,,,,,,,,,,,,,,,,,,,,,,,,,,,,,,
HOUSING,,,,,,,,,,,,,,,,,,,,,,,,,,,,,,,,,,,,,,,,,,,,,,,,,,,,,,,,,,,,,,,,,,,,,,,,,,,,,,,,,,,,,,,,,,,,,,,,,,,,,,,,,,,,,,,,,,,,,,,,,,,,,,,
Closely built to each other,,131,,,,,,,,,,,,,,,,,,,,,,,,,,,,,,,,,,,,,,,,,,,,,,,,,,,,,,,,,,,,,,,,,,,,,,,,,,,,,,,,,,,,,,,,,,,,,,,,,,,,,,,,,,,,,,,,,,,,,,,,,,,,,
Spacious,,10,,,,,,,,,,,,,,,,,,,,,,,,,,,,,,,,,,,,,,,,,,,,,,,,,,,,,,,,,,,,,,,,,,,,,,,,,,,,,,,,,,,,,,,,,,,,,,,,,,,,,,,,,,,,,,,,,,,,,,,,,,,,,
With adequate (extra) land,,1,,,,,,,,,,,,,,,,,,,,,,,,,,,,,,,,,,,,,,,,,,,,,,,,,,,,,,,,,,,,,,,,,,,,,,,,,,,,,,,,,,,,,,,,,,,,,,,,,,,,,,,,,,,,,,,,,,,,,,,,,,,,,
BEDROOMS,,,,,,,,,,,,,,,,,,,,,,,,,,,,,,,,,,,,,,,,,,,,,,,,,,,,,,,,,,,,,,,,,,,,,,,,,,,,,,,,,,,,,,,,,,,,,,,,,,,,,,,,,,,,,,,,,,,,,,,,,,,,,,,
Separate Bedrooms,,34,,,,,,,,,,,,,,,,,,,,,,,,,,,,,,,,,,,,,,,,,,,,,,,,,,,,,,,,,,,,,,,,,,,,,,,,,,,,,,,,,,,,,,,,,,,,,,,,,,,,,,,,,,,,,,,,,,,,,,,,,,,,,
No Actual Bedrooms,,40,,,,,,,,,,,,,,,,,,,,,,,,,,,,,,,,,,,,,,,,,,,,,,,,,,,,,,,,,,,,,,,,,,,,,,,,,,,,,,,,,,,,,,,,,,,,,,,,,,,,,,,,,,,,,,,,,,,,,,,,,,,,,
Shared Bedrooms,,32,,,,,,,,,,,,,,,,,,,,,,,,,,,,,,,,,,,,,,,,,,,,,,,,,,,,,,,,,,,,,,,,,,,,,,,,,,,,,,,,,,,,,,,,,,,,,,,,,,,,,,,,,,,,,,,,,,,,,,,,,,,,,
One Bedroom,,35,,,,,,,,,,,,,,,,,,,,,,,,,,,,,,,,,,,,,,,,,,,,,,,,,,,,,,,,,,,,,,,,,,,,,,,,,,,,,,,,,,,,,,,,,,,,,,,,,,,,,,,,,,,,,,,,,,,,,,,,,,,,,
NO OF INDIVIDUALS SHARING ONE ROOM DAILY,,,,,,,,,,,,,,,,,,,,,,,,,,,,,,,,,,,,,,,,,,,,,,,,,,,,,,,,,,,,,,,,,,,,,,,,,,,,,,,,,,,,,,,,,,,,,,,,,,,,,,,,,,,,,,,,,,,,,,,,,,,,,,,
1,,0,,,,,,,,,,,,,,,,,,,,,,,,,,,,,,,,,,,,,,,,,,,,,,,,,,,,,,,,,,,,,,,,,,,,,,,,,,,,,,,,,,,,,,,,,,,,,,,,,,,,,,,,,,,,,,,,,,,,,,,,,,,,,
2,,2,,,,,,,,,,,,,,,,,,,,,,,,,,,,,,,,,,,,,,,,,,,,,,,,,,,,,,,,,,,,,,,,,,,,,,,,,,,,,,,,,,,,,,,,,,,,,,,,,,,,,,,,,,,,,,,,,,,,,,,,,,,,,
3,,5,,,,,,,,,,,,,,,,,,,,,,,,,,,,,,,,,,,,,,,,,,,,,,,,,,,,,,,,,,,,,,,,,,,,,,,,,,,,,,,,,,,,,,,,,,,,,,,,,,,,,,,,,,,,,,,,,,,,,,,,,,,,,
4,,7,,,,,,,,,,,,,,,,,,,,,,,,,,,,,,,,,,,,,,,,,,,,,,,,,,,,,,,,,,,,,,,,,,,,,,,,,,,,,,,,,,,,,,,,,,,,,,,,,,,,,,,,,,,,,,,,,,,,,,,,,,,,,
5,,5,,,,,,,,,,,,,,,,,,,,,,,,,,,,,,,,,,,,,,,,,,,,,,,,,,,,,,,,,,,,,,,,,,,,,,,,,,,,,,,,,,,,,,,,,,,,,,,,,,,,,,,,,,,,,,,,,,,,,,,,,,,,,
6,,2,,,,,,,,,,,,,,,,,,,,,,,,,,,,,,,,,,,,,,,,,,,,,,,,,,,,,,,,,,,,,,,,,,,,,,,,,,,,,,,,,,,,,,,,,,,,,,,,,,,,,,,,,,,,,,,,,,,,,,,,,,,,,
7,,3,,,,,,,,,,,,,,,,,,,,,,,,,,,,,,,,,,,,,,,,,,,,,,,,,,,,,,,,,,,,,,,,,,,,,,,,,,,,,,,,,,,,,,,,,,,,,,,,,,,,,,,,,,,,,,,,,,,,,,,,,,,,,
8,,1,,,,,,,,,,,,,,,,,,,,,,,,,,,,,,,,,,,,,,,,,,,,,,,,,,,,,,,,,,,,,,,,,,,,,,,,,,,,,,,,,,,,,,,,,,,,,,,,,,,,,,,,,,,,,,,,,,,,,,,,,,,,,
9,,1,,,,,,,,,,,,,,,,,,,,,,,,,,,,,,,,,,,,,,,,,,,,,,,,,,,,,,,,,,,,,,,,,,,,,,,,,,,,,,,,,,,,,,,,,,,,,,,,,,,,,,,,,,,,,,,,,,,,,,,,,,,,,
NO OF FAMILIES SHARING ONE HOUSE,,,,,,,,,,,,,,,,,,,,,,,,,,,,,,,,,,,,,,,,,,,,,,,,,,,,,,,,,,,,,,,,,,,,,,,,,,,,,,,,,,,,,,,,,,,,,,,,,,,,,,,,,,,,,,,,,,,,,,,,,,,,,,,
1,,0,,,,,,,,,,,,,,,,,,,,,,,,,,,,,,,,,,,,,,,,,,,,,,,,,,,,,,,,,,,,,,,,,,,,,,,,,,,,,,,,,,,,,,,,,,,,,,,,,,,,,,,,,,,,,,,,,,,,,,,,,,,,,
2,,3,,,,,,,,,,,,,,,,,,,,,,,,,,,,,,,,,,,,,,,,,,,,,,,,,,,,,,,,,,,,,,,,,,,,,,,,,,,,,,,,,,,,,,,,,,,,,,,,,,,,,,,,,,,,,,,,,,,,,,,,,,,,,
3,,3,,,,,,,,,,,,,,,,,,,,,,,,,,,,,,,,,,,,,,,,,,,,,,,,,,,,,,,,,,,,,,,,,,,,,,,,,,,,,,,,,,,,,,,,,,,,,,,,,,,,,,,,,,,,,,,,,,,,,,,,,,,,,
4,,3,,,,,,,,,,,,,,,,,,,,,,,,,,,,,,,,,,,,,,,,,,,,,,,,,,,,,,,,,,,,,,,,,,,,,,,,,,,,,,,,,,,,,,,,,,,,,,,,,,,,,,,,,,,,,,,,,,,,,,,,,,,,,
5,,0,,,,,,,,,,,,,,,,,,,,,,,,,,,,,,,,,,,,,,,,,,,,,,,,,,,,,,,,,,,,,,,,,,,,,,,,,,,,,,,,,,,,,,,,,,,,,,,,,,,,,,,,,,,,,,,,,,,,,,,,,,,,,
7,,1,,,,,,,,,,,,,,,,,,,,,,,,,,,,,,,,,,,,,,,,,,,,,,,,,,,,,,,,,,,,,,,,,,,,,,,,,,,,,,,,,,,,,,,,,,,,,,,,,,,,,,,,,,,,,,,,,,,,,,,,,,,,,
8,,1,,,,,,,,,,,,,,,,,,,,,,,,,,,,,,,,,,,,,,,,,,,,,,,,,,,,,,,,,,,,,,,,,,,,,,,,,,,,,,,,,,,,,,,,,,,,,,,,,,,,,,,,,,,,,,,,,,,,,,,,,,,,,
9,,0,,,,,,,,,,,,,,,,,,,,,,,,,,,,,,,,,,,,,,,,,,,,,,,,,,,,,,,,,,,,,,,,,,,,,,,,,,,,,,,,,,,,,,,,,,,,,,,,,,,,,,,,,,,,,,,,,,,,,,,,,,,,,
HOUSE IS MADE UP OF:,,,,,,,,,,,,,,,,,,,,,,,,,,,,,,,,,,,,,,,,,,,,,,,,,,,,,,,,,,,,,,,,,,,,,,,,,,,,,,,,,,,,,,,,,,,,,,,,,,,,,,,,,,,,,,,,,,,,,,,,,,,,,,,
Wood,,109,,,,,,,,,,,,,,,,,,,,,,,,,,,,,,,,,,,,,,,,,,,,,,,,,,,,,,,,,,,,,,,,,,,,,,,,,,,,,,,,,,,,,,,,,,,,,,,,,,,,,,,,,,,,,,,,,,,,,,,,,,,,,
Cement/Concrete,,101,,,,,,,,,,,,,,,,,,,,,,,,,,,,,,,,,,,,,,,,,,,,,,,,,,,,,,,,,,,,,,,,,,,,,,,,,,,,,,,,,,,,,,,,,,,,,,,,,,,,,,,,,,,,,,,,,,,,,,,,,,,,,
Metal/Iron,,46,,,,,,,,,,,,,,,,,,,,,,,,,,,,,,,,,,,,,,,,,,,,,,,,,,,,,,,,,,,,,,,,,,,,,,,,,,,,,,,,,,,,,,,,,,,,,,,,,,,,,,,,,,,,,,,,,,,,,,,,,,,,,
Scarp Materials,,44,,,,,,,,,,,,,,,,,,,,,,,,,,,,,,,,,,,,,,,,,,,,,,,,,,,,,,,,,,,,,,,,,,,,,,,,,,,,,,,,,,,,,,,,,,,,,,,,,,,,,,,,,,,,,,,,,,,,,,,,,,,,,
Others,,0,,,,,,,,,,,,,,,,,,,,,,,,,,,,,,,,,,,,,,,,,,,,,,,,,,,,,,,,,,,,,,,,,,,,,,,,,,,,,,,,,,,,,,,,,,,,,,,,,,,,,,,,,,,,,,,,,,,,,,,,,,,,,
FACILITIES IN HOUSES:,,,,,,,,,,,,,,,,,,,,,,,,,,,,,,,,,,,,,,,,,,,,,,,,,,,,,,,,,,,,,,,,,,,,,,,,,,,,,,,,,,,,,,,,,,,,,,,,,,,,,,,,,,,,,,,,,,,,,,,,,,,,,,,
Private Toilet,,114,,,,,,,,,,,,,,,,,,,,,,,,,,,,,,,,,,,,,,,,,,,,,,,,,,,,,,,,,,,,,,,,,,,,,,,,,,,,,,,,,,,,,,,,,,,,,,,,,,,,,,,,,,,,,,,,,,,,,,,,,,,,,
Communal Toilet,,32,,,,,,,,,,,,,,,,,,,,,,,,,,,,,,,,,,,,,,,,,,,,,,,,,,,,,,,,,,,,,,,,,,,,,,,,,,,,,,,,,,,,,,,,,,,,,,,,,,,,,,,,,,,,,,,,,,,,,,,,,,,,,
W/ electricity and private electrical meters,,46,,,,,,,,,,,,,,,,,,,,,,,,,,,,,,,,,,,,,,,,,,,,,,,,,,,,,,,,,,,,,,,,,,,,,,,,,,,,,,,,,,,,,,,,,,,,,,,,,,,,,,,,,,,,,,,,,,,,,,,,,,,,,
W/ electricity but w/ shared electrical meters,,61,,,,,,,,,,,,,,,,,,,,,,,,,,,,,,,,,,,,,,,,,,,,,,,,,,,,,,,,,,,,,,,,,,,,,,,,,,,,,,,,,,,,,,,,,,,,,,,,,,,,,,,,,,,,,,,,,,,,,,,,,,,,,
Water System,,60,,,,,,,,,,,,,,,,,,,,,,,,,,,,,,,,,,,,,,,,,,,,,,,,,,,,,,,,,,,,,,,,,,,,,,,,,,,,,,,,,,,,,,,,,,,,,,,,,,,,,,,,,,,,,,,,,,,,,,,,,,,,,
SERVICE CENTERS/ FACILITIES ACCESSIBLE TO COMMUNITY,,,,,,,,,,,,,,,,,,,,,,,,,,,,,,,,,,,,,,,,,,,,,,,,,,,,,,,,,,,,,,,,,,,,,,,,,,,,,,,,,,,,,,,,,,,,,,,,,,,,,,,,,,,,,,,,,,,,,,,,,,,,,,,
Private Hospital,,61,,,,,,,,,,,,,,,,,,,,,,,,,,,,,,,,,,,,,,,,,,,,,,,,,,,,,,,,,,,,,,,,,,,,,,,,,,,,,,,,,,,,,,,,,,,,,,,,,,,,,,,,,,,,,,,,,,,,,,,,,,,,,
Government Hospital,,89,,,,,,,,,,,,,,,,,,,,,,,,,,,,,,,,,,,,,,,,,,,,,,,,,,,,,,,,,,,,,,,,,,,,,,,,,,,,,,,,,,,,,,,,,,,,,,,,,,,,,,,,,,,,,,,,,,,,,,,,,,,,,
Barangay Health Center,,131,,,,,,,,,,,,,,,,,,,,,,,,,,,,,,,,,,,,,,,,,,,,,,,,,,,,,,,,,,,,,,,,,,,,,,,,,,,,,,,,,,,,,,,,,,,,,,,,,,,,,,,,,,,,,,,,,,,,,,,,,,,,,
Botika ng Barangay,,68,,,,,,,,,,,,,,,,,,,,,,,,,,,,,,,,,,,,,,,,,,,,,,,,,,,,,,,,,,,,,,,,,,,,,,,,,,,,,,,,,,,,,,,,,,,,,,,,,,,,,,,,,,,,,,,,,,,,,,,,,,,,,
 ,,106,,,,,,,,,,,,,,,,,,,,,,,,,,,,,,,,,,,,,,,,,,,,,,,,,,,,,,,,,,,,,,,,,,,,,,,,,,,,,,,,,,,,,,,,,,,,,,,,,,,,,,,,,,,,,,,,,,,,,,,,,,,,,
Dry Market,,88,,,,,,,,,,,,,,,,,,,,,,,,,,,,,,,,,,,,,,,,,,,,,,,,,,,,,,,,,,,,,,,,,,,,,,,,,,,,,,,,,,,,,,,,,,,,,,,,,,,,,,,,,,,,,,,,,,,,,,,,,,,,,
Church,,94,,,,,,,,,,,,,,,,,,,,,,,,,,,,,,,,,,,,,,,,,,,,,,,,,,,,,,,,,,,,,,,,,,,,,,,,,,,,,,,,,,,,,,,,,,,,,,,,,,,,,,,,,,,,,,,,,,,,,,,,,,,,,
Basketball Court,,126,,,,,,,,,,,,,,,,,,,,,,,,,,,,,,,,,,,,,,,,,,,,,,,,,,,,,,,,,,,,,,,,,,,,,,,,,,,,,,,,,,,,,,,,,,,,,,,,,,,,,,,,,,,,,,,,,,,,,,,,,,,,,
Police Station,,60,,,,,,,,,,,,,,,,,,,,,,,,,,,,,,,,,,,,,,,,,,,,,,,,,,,,,,,,,,,,,,,,,,,,,,,,,,,,,,,,,,,,,,,,,,,,,,,,,,,,,,,,,,,,,,,,,,,,,,,,,,,,,
Fire Station,,62,,,,,,,,,,,,,,,,,,,,,,,,,,,,,,,,,,,,,,,,,,,,,,,,,,,,,,,,,,,,,,,,,,,,,,,,,,,,,,,,,,,,,,,,,,,,,,,,,,,,,,,,,,,,,,,,,,,,,,,,,,,,,
Food Establishments,,107,,,,,,,,,,,,,,,,,,,,,,,,,,,,,,,,,,,,,,,,,,,,,,,,,,,,,,,,,,,,,,,,,,,,,,,,,,,,,,,,,,,,,,,,,,,,,,,,,,,,,,,,,,,,,,,,,,,,,,,,,,,,,
Mall,,120,,,,,,,,,,,,,,,,,,,,,,,,,,,,,,,,,,,,,,,,,,,,,,,,,,,,,,,,,,,,,,,,,,,,,,,,,,,,,,,,,,,,,,,,,,,,,,,,,,,,,,,,,,,,,,,,,,,,,,,,,,,,,
Others,,2,,,,,,,,,,,,,,,,,,,,,,,,,,"School, E.R.",,,,,,,,,,,,,,,,,,,,,,,,,,,,,,,,,,,,,,,,,,,,,,,,,,,,,,,,,,,,,,,,,,,,,,,,,,,,,,,,,,,,,,,,,,,,,,,,,,,
COMMUNITY IS NEAR:,,,,,,,,,,,,,,,,,,,,,,,,,,,,,,,,,,,,,,,,,,,,,,,,,,,,,,,,,,,,,,,,,,,,,,,,,,,,,,,,,,,,,,,,,,,,,,,,,,,,,,,,,,,,,,,,,,,,,,,,,,,,,,,
River,,77,,,,,,,,,,,,,,,,,,,,,,,,,,,,,,,,,,,,,,,,,,,,,,,,,,,,,,,,,,,,,,,,,,,,,,,,,,,,,,,,,,,,,,,,,,,,,,,,,,,,,,,,,,,,,,,,,,,,,,,,,,,,,
Main road,,123,,,,,,,,,,,,,,,,,,,,,,,,,,,,,,,,,,,,,,,,,,,,,,,,,,,,,,,,,,,,,,,,,,,,,,,,,,,,,,,,,,,,,,,,,,,,,,,,,,,,,,,,,,,,,,,,,,,,,,,,,,,,,
Factories,,42,,,,,,,,,,,,,,,,,,,,,,,,,,,,,,,,,,,,,,,,,,,,,,,,,,,,,,,,,,,,,,,,,,,,,,,,,,,,,,,,,,,,,,,,,,,,,,,,,,,,,,,,,,,,,,,,,,,,,,,,,,,,,
Dump Site,,17,,,,,,,,,,,,,,,,,,,,,,,,,,,,,,,,,,,,,,,,,,,,,,,,,,,,,,,,,,,,,,,,,,,,,,,,,,,,,,,,,,,,,,,,,,,,,,,,,,,,,,,,,,,,,,,,,,,,,,,,,,,,,
Construction Site,,45,,,,,,,,,,,,,,,,,,,,,,,,,,,,,,,,,,,,,,,,,,,,,,,,,,,,,,,,,,,,,,,,,,,,,,,,,,,,,,,,,,,,,,,,,,,,,,,,,,,,,,,,,,,,,,,,,,,,,,,,,,,,,
Hospital,,95,,,,,,,,,,,,,,,,,,,,,,,,,,,,,,,,,,,,,,,,,,,,,,,,,,,,,,,,,,,,,,,,,,,,,,,,,,,,,,,,,,,,,,,,,,,,,,,,,,,,,,,,,,,,,,,,,,,,,,,,,,,,,
Others,,1,Canals,,,,,,,,,,,,,,,,,,,,,,,,,,,,,,,,,,,,,,,,,,,,,,,,,,,,,,,,,,,,,,,,,,,,,,,,,,,,,,,,,,,,,,,,,,,,,,,,,,,,,,,,,,,,,,,,,,,,,,,,,,,,
SOURCE OF WATER: DAILY USE,,,,,,,,,,,,,,,,,,,,,,,,,,,,,,,,,,,,,,,,,,,,,,,,,,,,,,,,,,,,,,,,,,,,,,,,,,,,,,,,,,,,,,,,,,,,,,,,,,,,,,,,,,,,,,,,,,,,,,,,,,,,,,,
Tap,,64,,,,,,,,,,,,,,,,,,,,,,,,,,,,,,,,,,,,,,,,,,,,,,,,,,,,,,,,,,,,,,,,,,,,,,,,,,,,,,,,,,,,,,,,,,,,,,,,,,,,,,,,,,,,,,,,,,,,,,,,,,,,,
Water from well,,30,,,,,,,,,,,,,,,,,,,,,,,,,,,,,,,,,,,,,,,,,,,,,,,,,,,,,,,,,,,,,,,,,,,,,,,,,,,,,,,,,,,,,,,,,,,,,,,,,,,,,,,,,,,,,,,,,,,,,,,,,,,,,
Rationed,,41,,,,,,,,,,,,,,,,,,,,,,,,,,,,,,,,,,,,,,,,,,,,,,,,,,,,,,,,,,,,,,,,,,,,,,,,,,,,,,,,,,,,,,,,,,,,,,,,,,,,,,,,,,,,,,,,,,,,,,,,,,,,,
Bottled,,2,,,,,,,,,,,,,,,,,,,,,,,,,,,,,,,,,,,,,,,,,,,,,,,,,,,,,,,,,,,,,,,,,,,,,,,,,,,,,,,,,,,,,,,,,,,,,,,,,,,,,,,,,,,,,,,,,,,,,,,,,,,,,
Others,,19,,,,,,,,,,,,,,,,,,,,,,,,,,,,,,,,,,,,,,,,,,,,,,,,,,,,,,,,,,,,,,,,,,,,,,,,,,,,,,,,,,,,,,,,,,,,,,,,,,,,,,,,,,,,,,,,,,,,,,,,,,,,,
SOURCE OF WATER: COOKING,,,,,,,,,,,,,,,,,,,,,,,,,,,,,,,,,,,,,,,,,,,,,,,,,,,,,,,,,,,,,,,,,,,,,,,,,,,,,,,,,,,,,,,,,,,,,,,,,,,,,,,,,,,,,,,,,,,,,,,,,,,,,,,
Tap,,51,,,,,,,,,,,,,,,,,,,,,,,,,,,,,,,,,,,,,,,,,,,,,,,,,,,,,,,,,,,,,,,,,,,,,,,,,,,,,,,,,,,,,,,,,,,,,,,,,,,,,,,,,,,,,,,,,,,,,,,,,,,,,
Water from well,,15,,,,,,,,,,,,,,,,,,,,,,,,,,,,,,,,,,,,,,,,,,,,,,,,,,,,,,,,,,,,,,,,,,,,,,,,,,,,,,,,,,,,,,,,,,,,,,,,,,,,,,,,,,,,,,,,,,,,,,,,,,,,,
Rationed,,36,,,,,,,,,,,,,,,,,,,,,,,,,,,,,,,,,,,,,,,,,,,,,,,,,,,,,,,,,,,,,,,,,,,,,,,,,,,,,,,,,,,,,,,,,,,,,,,,,,,,,,,,,,,,,,,,,,,,,,,,,,,,,
Bottled,,28,,,,,,,,,,,,,,,,,,,,,,,,,,,,,,,,,,,,,,,,,,,,,,,,,,,,,,,,,,,,,,,,,,,,,,,,,,,,,,,,,,,,,,,,,,,,,,,,,,,,,,,,,,,,,,,,,,,,,,,,,,,,,
Others,,29,,,,,,,,,,,,,,,,,,,,,,,,,,,,,,,,,,,,,,,,,,,30 - not specified,,,,,,,,,,,,,,,,,,,,,,,,,,,,,,,,,,,,,,,,,,,,,,,,,,,,,,,,,,,,,,,,,,,,,,,,,,,,,,,,,,
SOURCE OF WATER: DRINKING,,,,,,,,,,,,,,,,,,,,,,,,,,,,,,,,,,,,,,,,,,,,,,,,,,,,,,,,,,,,,,,,,,,,,,,,,,,,,,,,,,,,,,,,,,,,,,,,,,,,,,,,,,,,,,,,,,,,,,,,,,,,,,,
Tap,,16,,,,,,,,,,,,,,,,,,,,,,,,,,,,,,,,,,,,,,,,,,,,,,,,,,,,,,,,,,,,,,,,,,,,,,,,,,,,,,,,,,,,,,,,,,,,,,,,,,,,,,,,,,,,,,,,,,,,,,,,,,,,,
Water from well,,9,,,,,,,,,,,,,,,,,,,,,,,,,,,,,,,,,,,,,,,,,,,,,,,,,,,,,,,,,,,,,,,,,,,,,,,,,,,,,,,,,,,,,,,,,,,,,,,,,,,,,,,,,,,,,,,,,,,,,,,,,,,,,
Rationed,,24,,,,,,,,,,,,,,,,,,,,,,,,,,,,,,,,,,,,,,,,,,,,,,,,,,,,,,,,,,,,,,,,,,,,,,,,,,,,,,,,,,,,,,,,,,,,,,,,,,,,,,,,,,,,,,,,,,,,,,,,,,,,,
Bottled,,55,,,,,,,,,,,,,,,,,,,,,,,,,,,,,,,,,,,,,,,,,,,,,,,,,,,,,,,,,,,,,,,,,,,,,,,,,,,,,,,,,,,,,,,,,,,,,,,,,,,,,,,,,,,,,,,,,,,,,,,,,,,,,
Others,,54,,,,,,,,,,,,,,,,,,,,,,,,,,,,,,,,,,,,,,,,,,,,Other sources were not specified,,,,,,,,,,,,,,,,,,,,,,,,,,,,,,,,,,,,,,,,,,,,,,,,,,,,,,,,,,,,,,,,,,,,,,,,,,,,,,,,,
HOW THEY ENSURE SAFETY OF DRINKING WATER,,,,,,,,,,,,,,,,,,,,,,,,,,,,,,,,,,,,,,,,,,,,,,,,,,,,,,,,,,,,,,,,,,,,,,,,,,,,,,,,,,,,,,,,,,,,,,,,,,,,,,,,,,,,,,,,,,,,,,,,,,,,,,,
Use water filters,,24,,,,,,,,,,,,,,,,,,,,,,,,,,,,,,,,,,,,,,,,,,,,,,,,,,,,,,,,,,,,,,,,,,,,,,,,,,,,,,,,,,,,,,,,,,,,,,,,,,,,,,,,,,,,,,,,,,,,,,,,,,,,,
Boil water,,21,,,,,,,,,,,,,,,,,,,,,,,,,,,,,,,,,,,,,,,,,,,,,,,,,,,,,,,,,,,,,,,,,,,,,,,,,,,,,,,,,,,,,,,,,,,,,,,,,,,,,,,,,,,,,,,,,,,,,,,,,,,,,
No specific measure,,45,,,,,,,,,,,,,,,,,,,,,,,,,,,,,,,,,,,,,,,,,,,,,,,,,,,,,,,,,,,,,,,,,,,,,,,,,,,,,,,,,,,,,,,,,,,,,,,,,,,,,,,,,,,,,,,,,,,,,,,,,,,,,
Others,,55,,,,,,,,,,,,,,,,,,,,,,,,,,,,,,,,,,,,,,,,,,,,,,,,,,,,Refilling stations- 25 ; Bought bottled water- 30,,,,,,,,,,,,,,,,,,,,,,,,,,,,,,,,,,,,,,,,,,,,,,,,,,,,,,,,,,,,,,,,,,,,,,,,,
SPECIFIC DURATION OF BOILING PROCESS,,,,,,,,,,,,,,,,,,,,,,,,,,,,,,,,,,,,,,,,,,,,,,,,,,,,,,,,,,,,,,,,,,,,,,,,,,,,,,,,,,,,,,,,,,,,,,,,,,,,,,,,,,,,,,,,,,,,,,,,,,,,,,,
1-3 minutes,,2,,,,,,,,,,,,,,,,,,,,,,,,,,,,,,,,,,,,,,,,,,,,,,,,,,,,,,,,,,,,,,,,,,,,,,,,,,,,,,,,,,,,,,,,,,,,,,,,,,,,,,,,,,,,,,,,,,,,,,,,,,,,,
4-6 minutes,,8,,,,,,,,,,,,,,,,,,,,,,,,,,,,,,,,,,,,,,,,,,,,,,,,,,,,,,,,,,,,,,,,,,,,,,,,,,,,,,,,,,,,,,,,,,,,,,,,,,,,,,,,,,,,,,,,,,,,,,,,,,,,,
7-9 minutes,,1,,,,,,,,,,,,,,,,,,,,,,,,,,,,,,,,,,,,,,,,,,,,,,,,,,,,,,,,,,,,,,,,,,,,,,,,,,,,,,,,,,,,,,,,,,,,,,,,,,,,,,,,,,,,,,,,,,,,,,,,,,,,,
10 or more,,10,,,,,,,,,,,,,,,,,,,,,,,,,,,,,,,,,,,,,,,,,,,,,,,,,,,,,,,,,,,,,,,,,,,,,,,,,,,,,,,,,,,,,,,,,,,,,,,,,,,,,,,,,,,,,,,,,,,,,,,,,,,,,
DO YOU STORE DRINKING WATER AT HOME?,,,,,,,,,,,,,,,,,,,,,,,,,,,,,,,,,,,,,,,,,,,,,,,,,,,,,,,,,,,,,,,,,,,,,,,,,,,,,,,,,,,,,,,,,,,,,,,,,,,,,,,,,,,,,,,,,,,,,,,,,,,,,,,
No,,12,,,,,,,,,,,,,,,,,,,,,,,,,,,,,,,,,,,,,,,,,,,,,,,,,,,,,,,,,,,,,,,,,,,,,,,,,,,,,,,,,,,,,,,,,,,,,,,,,,,,,,,,,,,,,,,,,,,,,,,,,,,,,
Yes,,133,,,,,,,,,,,,,,,,,,,,,,,,,,,,,,,,,,,,,,,,,,,,,,,,,,,,,,,,,,,,,,,,,,,,,,,,,,,,,,,,,,,,,,,,,,,,,,,,,,,,,,,,,,,,,,,,,,,,,,,,,,,,,
"if yes, DRINKING WATER IS STORED IN:",,,,,,,,,,,,,,,,,,,,,,,,,,,,,,,,,,,,,,,,,,,,,,,,,,,,,,,,,,,,,,,,,,,,,,,,,,,,,,,,,,,,,,,,,,,,,,,,,,,,,,,,,,,,,,,,,,,,,,,,,,,,,,,
Uncovered containers,,1,,,,,,,,,,,,,,,,,,,,,,,,,,,,,,,,,,,,,,,,,,,,,,,,,,,,,,,,,,,,,,,,,,,,,,,,,,,,,,,,,,,,,,,,,,,,,,,,,,,,,,,,,,,,,,,,,,,,,,,,,,,,,
Drinking water is not stored in the house,,0,,,,,,,,,,,,,,,,,,,,,,,,,,,,,,,,,,,,,,,,,,,,,,,,,,,,,,,,,,,,,,,,,,,,,,,,,,,,,,,,,,,,,,,,,,,,,,,,,,,,,,,,,,,,,,,,,,,,,,,,,,,,,
Containers w/ covers/lids,,128,,,,,,,,,,,,,,,,,,,,,,,,,,,,,,,,,,,,,,,,,,,,,,,,,,,,,,,,,,,,,,,,,,,,,,,,,,,,,,,,,,,,,,,,,,,,,,,,,,,,,,,,,,,,,,,,,,,,,,,,,,,,,
Others,,4,Water dispensers (2); Jugs (1); water gallons (2) ,,,,,,,,,,,,,,,,,,,,,,,,,,,,,,,,,,,,,,,,,,,,,,,,,,,,,,,,,,,,,,,,,,,,,,,,,,,,,,,,,,,,,,,,,,,,,,,,,,,,,,,,,,,,,,,,,,,,,,,,,,,,
DO YOU STORE FOOD & PERISHABLE ITEMS AT HOME?        ,,,,,,,,,,,,,,,,,,,,,,,,,,,,,,,,,,,,,,,,,,,,,,,,,,,,,,,,,,,,,,,,,,,,,,,,,,,,,,,,,,,,,,,,,,,,,,,,,,,,,,,,,,,,,,,,,,,,,,,,,,,,,,,
No,,51,,,,,,,,,,,,,,,,,,,,,,,,,,,,,,,,,,,,,,,,,,,,,,,,,,,,,,,,,,,,,,,,,,,,,,,,,,,,,,,,,,,,,,,,,,,,,,,,,,,,,,,,,,,,,,,,,,,,,,,,,,,,,
Yes,,94,,,,,,,,,,,,,,,,,,,,,,,,,,,,,,,,,,,,,,,,,,,,,,,,,,,,,,,,,,,,,,,,,,,,,,,,,,,,,,,,,,,,,,,,,,,,,,,,,,,,,,,,,,,,,,,,,,,,,,,,,,,,,
"if yes, FOOD & PERISHABLE ITEMS ARE STORED IN:",,,,,,,,,,,,,,,,,,,,,,,,,,,,,,,,,,,,,,,,,,,,,,,,,,,,,,,,,,,,,,,,,,,,,,,,,,,,,,,,,,,,,,,,,,,,,,,,,,,,,,,,,,,,,,,,,,,,,,,,,,,,,,,
Refrigerator,,36,,,,,,,,,,,,,,,,,,,,,,,,,,,,,,,,,,,,,,,,,,,,,,,,,,,,,,,,,,,,,,,,,,,,,,,,,,,,,,,,,,,,,,,,,,,,,,,,,,,,,,,,,,,,,,,,,,,,,,,,,,,,,
Food Cabinet,,42,,,,,,,,,,,,,,,,,,,,,,,,,,,,,,,,,,,,,,,,,,,,,,,,,,,,,,,,,,,,,,,,,,,,,,,,,,,,,,,,,,,,,,,,,,,,,,,,,,,,,,,,,,,,,,,,,,,,,,,,,,,,,
No specific food storage,,18,,,,,,,,,,,,,,,,,,,,,,,,,,,,,,,,,,,,,,,,,,,,,,,,,,,,,,,,,,,,,,,,,,,,,,,,,,,,,,,,,,,,,,,,,,,,,,,,,,,,,,,,,,,,,,,,,,,,,,,,,,,,,
HANDWASHING: BEFORE MEALS,,,,,,,,,,,,,,,,,,,,,,,,,,,,,,,,,,,,,,,,,,,,,,,,,,,,,,,,,,,,,,,,,,,,,,,,,,,,,,,,,,,,,,,,,,,,,,,,,,,,,,,,,,,,,,,,,,,,,,,,,,,,,,,
No,,1,,,,,,,,,,,,,,,,,,,,,,,,,,,,,,,,,,,,,,,,,,,,,,,,,,,,,,,,,,,,,,,,,,,,,,,,,,,,,,,,,,,,,,,,,,,,,,,,,,,,,,,,,,,,,,,,,,,,,,,,,,,,,
Yes,,144,,,,,,,,,,,,,,,,,,,,,,,,,,,,,,,,,,,,,,,,,,,,,,,,,,,,,,,,,,,,,,,,,,,,,,,,,,,,,,,,,,,,,,,,,,,,,,,,,,,,,,,,,,,,,,,,,,,,,,,,,,,,,
HANDWASHING: PREPARING MEALS,,,,,,,,,,,,,,,,,,,,,,,,,,,,,,,,,,,,,,,,,,,,,,,,,,,,,,,,,,,,,,,,,,,,,,,,,,,,,,,,,,,,,,,,,,,,,,,,,,,,,,,,,,,,,,,,,,,,,,,,,,,,,,,
No,,1,,,,,,,,,,,,,,,,,,,,,,,,,,,,,,,,,,,,,,,,,,,,,,,,,,,,,,,,,,,,,,,,,,,,,,,,,,,,,,,,,,,,,,,,,,,,,,,,,,,,,,,,,,,,,,,,,,,,,,,,,,,,,
Yes,,144,,,,,,,,,,,,,,,,,,,,,,,,,,,,,,,,,,,,,,,,,,,,,,,,,,,,,,,,,,,,,,,,,,,,,,,,,,,,,,,,,,,,,,,,,,,,,,,,,,,,,,,,,,,,,,,,,,,,,,,,,,,,,
HANDWASHING: AFTER USING THE TOILET,,,,,,,,,,,,,,,,,,,,,,,,,,,,,,,,,,,,,,,,,,,,,,,,,,,,,,,,,,,,,,,,,,,,,,,,,,,,,,,,,,,,,,,,,,,,,,,,,,,,,,,,,,,,,,,,,,,,,,,,,,,,,,,
No,,2,,,,,,,,,,,,,,,,,,,,,,,,,,,,,,,,,,,,,,,,,,,,,,,,,,,,,,,,,,,,,,,,,,,,,,,,,,,,,,,,,,,,,,,,,,,,,,,,,,,,,,,,,,,,,,,,,,,,,,,,,,,,,
Yes,,143,,,,,,,,,,,,,,,,,,,,,,,,,,,,,,,,,,,,,,,,,,,,,,,,,,,,,,,,,,,,,,,,,,,,,,,,,,,,,,,,,,,,,,,,,,,,,,,,,,,,,,,,,,,,,,,,,,,,,,,,,,,,,
GARBAGE DISPOSAL IN THE COMMUNITY,,,,,,,,,,,,,,,,,,,,,,,,,,,,,,,,,,,,,,,,,,,,,,,,,,,,,,,,,,,,,,,,,,,,,,,,,,,,,,,,,,,,,,,,,,,,,,,,,,,,,,,,,,,,,,,,,,,,,,,,,,,,,,,
Throw in garbage bins/trash cans,,117,,,,,,,,,,,,,,,,,,,,,,,,,,,,,,,,,,,,,,,,,,,,,,,,,,,,,,,,,,,,,,,,,,,,,,,,,,,,,,,,,,,,,,,,,,,,,,,,,,,,,,,,,,,,,,,,,,,,,,,,,,,,,
Open dumpsite,,11,,,,,,,,,,,,,,,,,,,,,,,,,,,,,,,,,,,,,,,,,,,,,,,,,,,,,,,,,,,,,,,,,,,,,,,,,,,,,,,,,,,,,,,,,,,,,,,,,,,,,,,,,,,,,,,,,,,,,,,,,,,,,
Bury trash under the ground/ composting,,2,,,,,,,,,,,,,,,,,,,,,,,,,,,,,,,,,,,,,,,,,,,,,,,,,,,,,,,,,,,,,,,,,,,,,,,,,,,,,,,,,,,,,,,,,,,,,,,,,,,,,,,,,,,,,,,,,,,,,,,,,,,,,
Burn trash,,18,,,,,,,,,,,,,,,,,,,,,,,,,,,,,,,,,,,,,,,,,,,,,,,,,,,,,,,,,,,,,,,,,,,,,,,,,,,,,,,,,,,,,,,,,,,,,,,,,,,,,,,,,,,,,,,,,,,,,,,,,,,,,
Indiscriminate garbage disposal,,9,,,,,,,,,,,,,,,,,,,,,,,,,,,,,,,,,,,,,,,,,,,,,,,,,,,,,,,,,,,,,,,,,,,,,,,,,,,,,,,,,,,,,,,,,,,,,,,,,,,,,,,,,,,,,,,,,,,,,,,,,,,,,
Others,,22,"Garbage collection by trucks weekly (18), Sacks (4)",,,,,,,,,,,,,,,,,,,,,,,,,,,,,,,,,,,,,,,,,,,,,,,,,,,,,,,,,,,,,,,,,,,,,,,,,,,,,,,,,,,,,,,,,,,,,,,,,,,,,,,,,,,,,,,,,,,,,,,,,,,,
DO FAMILY/COMMUNITY MEMBERS PRACTICE THE FF. DISPOSAL MEASURES:,,,,,,,,,,,,,,,,,,,,,,,,,,,,,,,,,,,,,,,,,,,,,,,,,,,,,,,,,,,,,,,,,,,,,,,,,,,,,,,,,,,,,,,,,,,,,,,,,,,,,,,,,,,,,,,,,,,,,,,,,,,,,,,
Waste segregation,,51,,,,,,,,,,,,,,,,,,,,,,,,,,,,,,,,,,,,,,,,,,,,,,,,,,,,,,,,,,,,,,,,,,,,,,,,,,,,,,,,,,,,,,,,,,,,,,,,,,,,,,,,,,,,,,,,,,,,,,,,,,,,,
Recycling,,43,,,,,,,,,,,,,,,,,,,,,,,,,,,,,,,,,,,,,,,,,,,,,,,,,,,,,,,,,,,,,,,,,,,,,,,,,,,,,,,,,,,,,,,,,,,,,,,,,,,,,,,,,,,,,,,,,,,,,,,,,,,,,
Composting,,6,,,,,,,,,,,,,,,,,,,,,,,,,,,,,,,,,,,,,,,,,,,,,,,,,,,,,,,,,,,,,,,,,,,,,,,,,,,,,,,,,,,,,,,,,,,,,,,,,,,,,,,,,,,,,,,,,,,,,,,,,,,,,
IS THERE REGULAR GARBAGE DISPOSAL IN THE COMMUNITY?,,,,,,,,,,,,,,,,,,,,,,,,,,,,,,,,,,,,,,,,,,,,,,,,,,,,,,,,,,,,,,,,,,,,,,,,,,,,,,,,,,,,,,,,,,,,,,,,,,,,,,,,,,,,,,,,,,,,,,,,,,,,,,,
No,,10,,,,,,,,,,,,,,,,,,,,,,,,,,,,,,,,,,,,,,,,,,,,,,,,,,,,,,,,,,,,,,,,,,,,,,,,,,,,,,,,,,,,,,,,,,,,,,,,,,,,,,,,,,,,,,,,,,,,,,,,,,,,,
Yes,,133,,,,,,,,,,,,,,,,,,,,,,,,,,,,,,,,,,,,,,,,,,,,,,,,,,,,,,,,,,,,,,,,,,,,,,,,,,,,,,,,,,,,,,,,,,,,,,,,,,,,,,,,,,,,,,,,,,,,,,,,,,,,,
"if yes, HOW FREQUENT IS GARBAGE COLLECTION DONE?",,,,,,,,,,,,,,,,,,,,,,,,,,,,,,,,,,,,,,,,,,,,,,,,,,,,,,,,,,,,,,,,,,,,,,,,,,,,,,,,,,,,,,,,,,,,,,,,,,,,,,,,,,,,,,,,,,,,,,,,,,,,,,,
Daily,,0,,,,,,,,,,,,,,,,,,,,,,,,,,,,,,,,,,,,,,,,,,,,,,,,,,,,,,,,,,,,,,,,,,,,,,,,,,,,,,,,,,,,,,,,,,,,,,,,,,,,,,,,,,,,,,,,,,,,,,,,,,,,,
Several times a week,,96,,,,,,,,,,,,,,,,,,,,,,,,,,,,,,,,,,,,,,,,,,,,,,,,,,,,,,,,,,,,,,,,,,,,,,,,,,,,,,,,,,,,,,,,,,,,,,,,,,,,,,,,,,,,,,,,,,,,,,,,,,,,,
Weekly,,38,,,,,,,,,,,,,,,,,,,,,,,,,,,,,,,,,,,,,,,,,,,,,,,,,,,,,,,,,,,,,,,,,,,,,,,,,,,,,,,,,,,,,,,,,,,,,,,,,,,,,,,,,,,,,,,,,,,,,,,,,,,,,
Monthly,,0,,,,,,,,,,,,,,,,,,,,,,,,,,,,,,,,,,,,,,,,,,,,,,,,,,,,,,,,,,,,,,,,,,,,,,,,,,,,,,,,,,,,,,,,,,,,,,,,,,,,,,,,,,,,,,,,,,,,,,,,,,,,,
Quarterly,,0,,,,,,,,,,,,,,,,,,,,,,,,,,,,,,,,,,,,,,,,,,,,,,,,,,,,,,,,,,,,,,,,,,,,,,,,,,,,,,,,,,,,,,,,,,,,,,,,,,,,,,,,,,,,,,,,,,,,,,,,,,,,,
Once every 6 months,,0,,,,,,,,,,,,,,,,,,,,,,,,,,,,,,,,,,,,,,,,,,,,,,,,,,,,,,,,,,,,,,,,,,,,,,,,,,,,,,,,,,,,,,,,,,,,,,,,,,,,,,,,,,,,,,,,,,,,,,,,,,,,,
Monthly,,0,,,,,,,,,,,,,,,,,,,,,,,,,,,,,,,,,,,,,,,,,,,,,,,,,,,,,,,,,,,,,,,,,,,,,,,,,,,,,,,,,,,,,,,,,,,,,,,,,,,,,,,,,,,,,,,,,,,,,,,,,,,,,
Others,,0,,,,,,,,,,,,,,,,,,,,,,,,,,,,,,,,,,,,,,,,,,,,,,,,,,,,,,,,,,,,,,,,,,,,,,,,,,,,,,,,,,,,,,,,,,,,,,,,,,,,,,,,,,,,,,,,,,,,,,,,,,,,,
Unknown to respondent,,1,,,,,,,,,,,,,,,,,,,,,,,,,,,,,,,,,,,,,,,,,,,,,,,,,,,,,,,,,,,,,,,,,,,,,,,,,,,,,,,,,,,,,,,,,,,,,,,,,,,,,,,,,,,,,,,,,,,,,,,,,,,,,
"if several times a week, HOW MANY TIMES A WEEK?",,,,,,,,,,,,,,,,,,,,,,,,,,,,,,,,,,,,,,,,,,,,,,,,,,,,,,,,,,,,,,,,,,,,,,,,,,,,,,,,,,,,,,,,,,,,,,,,,,,,,,,,,,,,,,,,,,,,,,,,,,,,,,,
2x/ week,,81,,,,,,,,,,,,,,,,,,,,,,,,,,,,,,,,,,,,,,,,,,,,,,,,,,,,,,,,,,,,,,,,,,,,,,,,,,,,,,,,,,,,,,,,,,,,,,,,,,,,,,,,,,,,,,,,,,,,,,,,,,,,,
3x/ week,,14,,,,,,,,,,,,,,,,,,,,,,,,,,,,,,,,,,,,,,,,,,,,,,,,,,,,,,,,,,,,,,,,,,,,,,,,,,,,,,,,,,,,,,,,,,,,,,,,,,,,,,,,,,,,,,,,,,,,,,,,,,,,,
4x/ week,,2,,,,,,,,,,,,,,,,,,,,,,,,,,,,,,,,,,,,,,,,,,,,,,,,,,,,,,,,,,,,,,,,,,,,,,,,,,,,,,,,,,,,,,,,,,,,,,,,,,,,,,,,,,,,,,,,,,,,,,,,,,,,,
5x/ week,,0,,,,,,,,,,,,,,,,,,,,,,,,,,,,,,,,,,,,,,,,,,,,,,,,,,,,,,,,,,,,,,,,,,,,,,,,,,,,,,,,,,,,,,,,,,,,,,,,,,,,,,,,,,,,,,,,,,,,,,,,,,,,,
6x/ week,,0,,,,,,,,,,,,,,,,,,,,,,,,,,,,,,,,,,,,,,,,,,,,,,,,,,,,,,,,,,,,,,,,,,,,,,,,,,,,,,,,,,,,,,,,,,,,,,,,,,,,,,,,,,,,,,,,,,,,,,,,,,,,,
GARBAGE COLLECTION IS FACILITATED BY:,,,,,,,,,,,,,,,,,,,,,,,,,,,,,,,,,,,,,,,,,,,,,,,,,,,,,,,,,,,,,,,,,,,,,,,,,,,,,,,,,,,,,,,,,,,,,,,,,,,,,,,,,,,,,,,,,,,,,,,,,,,,,,,
Local government,,126,,,,,,,,,,,,,,,,,,,,,,,,,,,,,,,,,,,,,,,,,,,,,,,,,,,,,,,,,,,,,,,,,,,,,,,,,,,,,,,,,,,,,,,,,,,,,,,,,,,,,,,,,,,,,,,,,,,,,,,,,,,,,
Non-government Organization,,2,,,,,,,,,,,,,,,,,,,,,,,,,,,,,,,,,,,,,,,,,,,,,,,,,,,,,,,,,,,,,,,,,,,,,,,,,,,,,,,,,,,,,,,,,,,,,,,,,,,,,,,,,,,,,,,,,,,,,,,,,,,,,
Selected community members,,4,,,,,,,,,,,,,,,,,,,,,,,,,,,,,,,,,,,,,,,,,,,,,,,,,,,,,,,,,,,,,,,,,,,,,,,,,,,,,,,,,,,,,,,,,,,,,,,,,,,,,,,,,,,,,,,,,,,,,,,,,,,,,
Unknown to respondent,,6,,,,,,,,,,,,,,,,,,,,,,,,,,,,,,,,,,,,,,,,,,,,,,,,,,,,,,,,,,,,,,,,,,,,,,,,,,,,,,,,,,,,,,,,,,,,,,,,,,,,,,,,,,,,,,,,,,,,,,,,,,,,,
Others,,0,,,,,,,,,,,,,,,,,,,,,,,,,,,,,,,,,,,,,,,,,,,,,,,,,,,,,,,,,,,,,,,,,,,,,,,,,,,,,,,,,,,,,,,,,,,,,,,,,,,,,,,,,,,,,,,,,,,,,,,,,,,,,
BIOLOGICAL PESTS IN THE COMMUNITY,,,,,,,,,,,,,,,,,,,,,,,,,,,,,,,,,,,,,,,,,,,,,,,,,,,,,,,,,,,,,,,,,,,,,,,,,,,,,,,,,,,,,,,,,,,,,,,,,,,,,,,,,,,,,,,,,,,,,,,,,,,,,,,
No,,4,,,,,,,,,,,,,,,,,,,,,,,,,,,,,,,,,,,,,,,,,,,,,,,,,,,,,,,,,,,,,,,,,,,,,,,,,,,,,,,,,,,,,,,,,,,,,,,,,,,,,,,,,,,,,,,,,,,,,,,,,,,,,
Yes,,140,,,,,,,,,,,,,,,,,,,,,,,,,,,,,,,,,,,,,,,,,,,,,,,,,,,,,,,,,,,,,,,,,,,,,,,,,,,,,,,,,,,,,,,,,,,,,,,,,,,,,,,,,,,,,,,,,,,,,,,,,,,,,
"if yes, WHICH ARE CONSIDERED PESTS & ABUNDANT IN THE COMMUNITY?",,,,,,,,,,,,,,,,,,,,,,,,,,,,,,,,,,,,,,,,,,,,,,,,,,,,,,,,,,,,,,,,,,,,,,,,,,,,,,,,,,,,,,,,,,,,,,,,,,,,,,,,,,,,,,,,,,,,,,,,,,,,,,,
Flies,,107,,,,,,,,,,,,,,,,,,,,,,,,,,,,,,,,,,,,,,,,,,,,,,,,,,,,,,,,,,,,,,,,,,,,,,,,,,,,,,,,,,,,,,,,,,,,,,,,,,,,,,,,,,,,,,,,,,,,,,,,,,,,,
Mosquitoes,,125,,,,,,,,,,,,,,,,,,,,,,,,,,,,,,,,,,,,,,,,,,,,,,,,,,,,,,,,,,,,,,,,,,,,,,,,,,,,,,,,,,,,,,,,,,,,,,,,,,,,,,,,,,,,,,,,,,,,,,,,,,,,,
Cockroaches,,126,,,,,,,,,,,,,,,,,,,,,,,,,,,,,,,,,,,,,,,,,,,,,,,,,,,,,,,,,,,,,,,,,,,,,,,,,,,,,,,,,,,,,,,,,,,,,,,,,,,,,,,,,,,,,,,,,,,,,,,,,,,,,
Mice/rats,,123,,,,,,,,,,,,,,,,,,,,,,,,,,,,,,,,,,,,,,,,,,,,,,,,,,,,,,,,,,,,,,,,,,,,,,,,,,,,,,,,,,,,,,,,,,,,,,,,,,,,,,,,,,,,,,,,,,,,,,,,,,,,,
Stray Cats,,118,,,,,,,,,,,,,,,,,,,,,,,,,,,,,,,,,,,,,,,,,,,,,,,,,,,,,,,,,,,,,,,,,,,,,,,,,,,,,,,,,,,,,,,,,,,,,,,,,,,,,,,,,,,,,,,,,,,,,,,,,,,,,
Stray Dogs,,102,,,,,,,,,,,,,,,,,,,,,,,,,,,,,,,,,,,,,,,,,,,,,,,,,,,,,,,,,,,,,,,,,,,,,,,,,,,,,,,,,,,,,,,,,,,,,,,,,,,,,,,,,,,,,,,,,,,,,,,,,,,,,
Birds (pigeons),,47,,,,,,,,,,,,,,,,,,,,,,,,,,,,,,,,,,,,,,,,,,,,,,,,,,,,,,,,,,,,,,,,,,,,,,,,,,,,,,,,,,,,,,,,,,,,,,,,,,,,,,,,,,,,,,,,,,,,,,,,,,,,,
Pigs,,4,,,,,,,,,,,,,,,,,,,,,,,,,,,,,,,,,,,,,,,,,,,,,,,,,,,,,,,,,,,,,,,,,,,,,,,,,,,,,,,,,,,,,,,,,,,,,,,,,,,,,,,,,,,,,,,,,,,,,,,,,,,,,
Chickens,,84,,,,,,,,,,,,,,,,,,,,,,,,,,,,,,,,,,,,,,,,,,,,,,,,,,,,,,,,,,,,,,,,,,,,,,,,,,,,,,,,,,,,,,,,,,,,,,,,,,,,,,,,,,,,,,,,,,,,,,,,,,,,,
Others,,1,Snakes (1 response),,,,,,,,,,,,,,,,,,,,,,,,,,,,,,,,,,,,,,,,,,,,,,,,,,,,,,,,,,,,,,,,,,,,,,,,,,,,,,,,,,,,,,,,,,,,,,,,,,,,,,,,,,,,,,,,,,,,,,,,,,,,
ARE THERE ANY SPECIFIC MEASURES TO CONTROL PESTS?,,,,,,,,,,,,,,,,,,,,,,,,,,,,,,,,,,,,,,,,,,,,,,,,,,,,,,,,,,,,,,,,,,,,,,,,,,,,,,,,,,,,,,,,,,,,,,,,,,,,,,,,,,,,,,,,,,,,,,,,,,,,,,,
No,,73,,,,,,,,,,,,,,,,,,,,,,,,,,,,,,,,,,,,,,,,,,,,,,,,,,,,,,,,,,,,,,,,,,,,,,,,,,,,,,,,,,,,,,,,,,,,,,,,,,,,,,,,,,,,,,,,,,,,,,,,,,,,,
Yes,,69,,,,,,,,,,,,,,,,,,,,,,,,,,,,,,,,,,,,,,,,,,,,,,,,,,,,,,,,,,,,,,,,,,,,,,,,,,,,,,,,,,,,,,,,,,,,,,,,,,,,,,,,,,,,,,,,,,,,,,,,,,,,,
"if yes, WHAT ARE THE SPECIFIC MEASURES DONE BY THE COMMUNITY?",,,,,,,,,,,,,,,,,,,,,,,,,,,,,,,,,,,,,,,,,,,,,,,,,,,,,,,,,,,,,,,,,,,,,,,,,,,,,,,,,,,,,,,,,,,,,,,,,,,,,,,,,,,,,,,,,,,,,,,,,,,,,,,
*summarize/list down responses (no options were provided in the questionnaire),,"Spraying Pesticide/Insecticide (e.g. Baygon) (23 Respondents)
Fumigation (11)
Mosquito Coil/ Katol (7)
General Cleaning/ Household Cleaning (6)
Pa-usok (6)
Poison (5)
Anti-rabies injection/ Vaccination (4)
Cat domestication (4)
Pest control for cockroaches & mosquitoes (1)
Defogging (3)
Fogging (2) Pest control for rats (1)
Regular Cleaning Porgram facilitated by NGOs (1)
Request to local government (1)
Racumin (1)
Neuter (1)
Pest Terminators (1)
Mosquito Killer Swatter (1)
Cages (for chicken) (1)
Off Lotion (1)
Bomba (1)
Chalk (1)
Traps (1)",,,,,,,,,,,,,,,,,,,,,,,,,,,,,,,,,,,,,,,,,,,,,,,,,,,,,,,,,,,,,,,,,,,,,,,,,,,,,,,,,,,,,,,,,,,,,,,,,,,,,,,,,,,,,,,,,,,,,,,,,,,,,
DO YOU BELIEVE WATER POLLUTION IS A PROBLEM IN THE COMMUNITY?,,,,,,,,,,,,,,,,,,,,,,,,,,,,,,,,,,,,,,,,,,,,,,,,,,,,,,,,,,,,,,,,,,,,,,,,,,,,,,,,,,,,,,,,,,,,,,,,,,,,,,,,,,,,,,,,,,,,,,,,,,,,,,,
No,,53,,,,,,,,,,,,,,,,,,,,,,,,,,,,,,,,,,,,,,,,,,,,,,,,,,,,,,,,,,,,,,,,,,,,,,,,,,,,,,,,,,,,,,,,,,,,,,,,,,,,,,,,,,,,,,,,,,,,,,,,,,,,,
Yes,,89,,,,,,,,,,,,,,,,,,,,,,,,,,,,,,,,,,,,,,,,,,,,,,,,,,,,,,,,,,,,,,,,,,,,,,,,,,,,,,,,,,,,,,,,,,,,,,,,,,,,,,,,,,,,,,,,,,,,,,,,,,,,,
"if yes, WHAT ARE THE POTENTIAL SOURCES OF WATER POLLUTION IN THE COMMUNITY?",,,,,,,,,,,,,,,,,,,,,,,,,,,,,,,,,,,,,,,,,,,,,,,,,,,,,,,,,,,,,,,,,,,,,,,,,,,,,,,,,,,,,,,,,,,,,,,,,,,,,,,,,,,,,,,,,,,,,,,,,,,,,,,
Improper garbage disposal,,73,,,,,,,,,,,,,,,,,,,,,,,,,,,,,,,,,,,,,,,,,,,,,,,,,,,,,,,,,,,,,,,,,,,,,,,,,,,,,,,,,,,,,,,,,,,,,,,,,,,,,,,,,,,,,,,,,,,,,,,,,,,,,
Industrial factories,,26,,,,,,,,,,,,,,,,,,,,,,,,,,,,,,,,,,,,,,,,,,,,,,,,,,,,,,,,,,,,,,,,,,,,,,,,,,,,,,,,,,,,,,,,,,,,,,,,,,,,,,,,,,,,,,,,,,,,,,,,,,,,,
Faulty drainage system,,42,,,,,,,,,,,,,,,,,,,,,,,,,,,,,,,,,,,,,,,,,,,,,,,,,,,,,,,,,,,,,,,,,,,,,,,,,,,,,,,,,,,,,,,,,,,,,,,,,,,,,,,,,,,,,,,,,,,,,,,,,,,,,
Others,,7,"""Liguan/Hugasan, Improper waste storage, respondent doesn't know, government does not allow other sources of water to go in, poverty, HEAT, from big subdivisions",,,,,,,,,,,,,,,,,,,,,,,,,,,,,,,,,,,,,,,,,,,,,,,,,,,,,,,,,,,,,,,,,,,,,,,,,,,,,,,,,,,,,,,,,,,,,,,,,,,,,,,,,,,,,,,,,,,,,,,,,,,,
AREAS/ OBJECTS IN THE COMMUNITY WHRE EXCESS WATER/RAINWATER CAN ACCUMULATE,,,,,,,,,,,,,,,,,,,,,,,,,,,,,,,,,,,,,,,,,,,,,,,,,,,,,,,,,,,,,,,,,,,,,,,,,,,,,,,,,,,,,,,,,,,,,,,,,,,,,,,,,,,,,,,,,,,,,,,,,,,,,,,
Canals/ drains,,100,,,,,,,,,,,,,,,,,,,,,,,,,,,,,,,,,,,,,,,,,,,,,,,,,,,,,,,,,,,,,,,,,,,,,,,,,,,,,,,,,,,,,,,,,,,,,,,,,,,,,,,,,,,,,,,,,,,,,,,,,,,,,
Flower pots,,17,,,,,,,,,,,,,,,,,,,,,,,,,,,,,,,,,,,,,,,,,,,,,,,,,,,,,,,,,,,,,,,,,,,,,,,,,,,,,,,,,,,,,,,,,,,,,,,,,,,,,,,,,,,,,,,,,,,,,,,,,,,,,
Rubber tires,,24,,,,,,,,,,,,,,,,,,,,,,,,,,,,,,,,,,,,,,,,,,,,,,,,,,,,,,,,,,,,,,,,,,,,,,,,,,,,,,,,,,,,,,,,,,,,,,,,,,,,,,,,,,,,,,,,,,,,,,,,,,,,,
Basins/ drums,,44,,,,,,,,,,,,,,,,,,,,,,,,,,,,,,,,,,,,,,,,,,,,,,,,,,,,,,,,,,,,,,,,,,,,,,,,,,,,,,,,,,,,,,,,,,,,,,,,,,,,,,,,,,,,,,,,,,,,,,,,,,,,,
Others,,5,"river, pothole, well,  goes in house, puddles",,,,,,,,,,,,,,,,,,,,,,,,,,,,,,,,,,,,,,,,,,,,,,,,,,,,,,,,,,,,,,,,,,,,,,,,,,,,,,,,,,,,,,,,,,,,,,,,,,,,,,,,,,,,,,,,,,,,,,,,,,,,
DO YOU BELIEVE AIR POLLUTION IS A PROBLEM IN THE COMMUNITY?,,,,,,,,,,,,,,,,,,,,,,,,,,,,,,,,,,,,,,,,,,,,,,,,,,,,,,,,,,,,,,,,,,,,,,,,,,,,,,,,,,,,,,,,,,,,,,,,,,,,,,,,,,,,,,,,,,,,,,,,,,,,,,,
No,,38,,,,,,,,,,,,,,,,,,,,,,,,,,,,,,,,,,,,,,,,,,,,,,,,,,,,,,,,,,,,,,,,,,,,,,,,,,,,,,,,,,,,,,,,,,,,,,,,,,,,,,,,,,,,,,,,,,,,,,,,,,,,,
Yes,,105,,,,,,,,,,,,,,,,,,,,,,,,,,,,,,,,,,,,,,,,,,,,,,,,,,,,,,,,,,,,,,,,,,,,,,,,,,,,,,,,,,,,,,,,,,,,,,,,,,,,,,,,,,,,,,,,,,,,,,,,,,,,,
"if yes, WHAT ARE THE POTENTIAL SOURCES OF AIR POLLUTION IN THE COMMUNITY?",,,,,,,,,,,,,,,,,,,,,,,,,,,,,,,,,,,,,,,,,,,,,,,,,,,,,,,,,,,,,,,,,,,,,,,,,,,,,,,,,,,,,,,,,,,,,,,,,,,,,,,,,,,,,,,,,,,,,,,,,,,,,,,
Vehicular smoke,,68,,,,,,,,,,,,,,,,,,,,,,,,,,,,,,,,,,,,,,,,,,,,,,,,,,,,,,,,,,,,,,,,,,,,,,,,,,,,,,,,,,,,,,,,,,,,,,,,,,,,,,,,,,,,,,,,,,,,,,,,,,,,,
Cigarette smoke,,80,,,,,,,,,,,,,,,,,,,,,,,,,,,,,,,,,,,,,,,,,,,,,,,,,,,,,,,,,,,,,,,,,,,,,,,,,,,,,,,,,,,,,,,,,,,,,,,,,,,,,,,,,,,,,,,,,,,,,,,,,,,,,
Industrial plants/ factories,,24,,,,,,,,,,,,,,,,,,,,,,,,,,,,,,,,,,,,,,,,,,,,,,,,,,,,,,,,,,,,,,,,,,,,,,,,,,,,,,,,,,,,,,,,,,,,,,,,,,,,,,,,,,,,,,,,,,,,,,,,,,,,,
Others,,27,"Dust, Open burning “pagsisiga”, Foul smell of garbages, Smoke from buring charcoal, Smoke from burning wood, Heat, Weather",,,,,,,,,,,,,,,,,,,,,,,,,,,,,,,,,,,,,,,,,,,,,,,,,,,,,,,,,,,,,,,,,,,,,,,,,,,,,,,,,,,,,,,,,,,,,,,,,,,,,,,,,,,,,,,,,,,,,,,,,,,,